tb_uart_fifo_top.vcd
$version Generated by VerilatedVcd $end
$timescale 1ps $end
 $scope module TOP $end
  $scope module tb_uart_fifo_top $end
   $var wire 32 i CLK_FREQ_HZ [31:0] $end
   $var wire 32 j BAUD_RATE [31:0] $end
   $var wire 32 k CLK_PERIOD [31:0] $end
   $var wire 32 l BIT_CYCLES [31:0] $end
   $var wire 1 d clk $end
   $var wire 1 e rst_n $end
   $var wire 1 f tx_fifo_wr_en $end
   $var wire 8 g tx_fifo_din [7:0] $end
   $var wire 1 # tx_fifo_full $end
   $var wire 1 $ tx_fifo_empty $end
   $var wire 1 h rx_fifo_rd_en $end
   $var wire 8 % rx_fifo_dout [7:0] $end
   $var wire 1 & rx_fifo_full $end
   $var wire 1 ' rx_fifo_empty $end
   $var wire 1 ( tx_busy $end
   $var wire 1 W framing_error $end
   $var wire 1 X tx_serial $end
   $var wire 1 X rx_serial $end
   $scope module dut $end
    $var wire 32 i CLK_FREQ_HZ [31:0] $end
    $var wire 32 j BAUD_RATE [31:0] $end
    $var wire 32 m FIFO_DEPTH [31:0] $end
    $var wire 1 d clk $end
    $var wire 1 e rst_n $end
    $var wire 1 f tx_fifo_wr_en $end
    $var wire 8 g tx_fifo_din [7:0] $end
    $var wire 1 # tx_fifo_full $end
    $var wire 1 $ tx_fifo_empty $end
    $var wire 1 h rx_fifo_rd_en $end
    $var wire 8 % rx_fifo_dout [7:0] $end
    $var wire 1 & rx_fifo_full $end
    $var wire 1 ' rx_fifo_empty $end
    $var wire 1 ( tx_busy $end
    $var wire 1 W framing_error $end
    $var wire 1 X tx_serial $end
    $var wire 1 X rx_serial $end
    $var wire 1 ) tx_start $end
    $var wire 8 * tx_data [7:0] $end
    $var wire 1 + tx_done $end
    $var wire 8 Y rx_data [7:0] $end
    $var wire 1 Z rx_valid $end
    $var wire 1 , rx_valid_d $end
    $var wire 1 - tx_fifo_rd_en $end
    $var wire 8 . tx_fifo_dout [7:0] $end
    $var wire 1 / rx_fifo_wr_en $end
    $var wire 2 0 txm_state [1:0] $end
    $scope module u_rx $end
     $var wire 32 i CLK_FREQ_HZ [31:0] $end
     $var wire 32 j BAUD_RATE [31:0] $end
     $var wire 1 d clk $end
     $var wire 1 e rst_n $end
     $var wire 1 X rx $end
     $var wire 8 Y rx_data [7:0] $end
     $var wire 1 Z rx_valid $end
     $var wire 1 W framing_error $end
     $var wire 32 l DIVISOR [31:0] $end
     $var wire 32 n CNT_W [31:0] $end
     $var wire 4 o DIVISOR_M1 [3:0] $end
     $var wire 4 p MID_COUNT [3:0] $end
     $var wire 2 [ state [1:0] $end
     $var wire 4 \ cnt [3:0] $end
     $var wire 3 ] bit_idx [2:0] $end
     $var wire 8 ^ shreg [7:0] $end
     $var wire 1 _ rx_s1 $end
     $var wire 1 ` rx_s2 $end
    $upscope $end
    $scope module u_rx_fifo $end
     $var wire 32 q DATA_W [31:0] $end
     $var wire 32 m DEPTH [31:0] $end
     $var wire 32 n ADDR_W [31:0] $end
     $var wire 1 d clk $end
     $var wire 1 e rst_n $end
     $var wire 1 / wr_en $end
     $var wire 8 Y in_data [7:0] $end
     $var wire 1 h rd_en $end
     $var wire 8 % out_data [7:0] $end
     $var wire 1 & full $end
     $var wire 1 ' empty $end
     $var wire 8 1 mem[0] [7:0] $end
     $var wire 8 2 mem[1] [7:0] $end
     $var wire 8 3 mem[2] [7:0] $end
     $var wire 8 4 mem[3] [7:0] $end
     $var wire 8 5 mem[4] [7:0] $end
     $var wire 8 6 mem[5] [7:0] $end
     $var wire 8 7 mem[6] [7:0] $end
     $var wire 8 8 mem[7] [7:0] $end
     $var wire 8 9 mem[8] [7:0] $end
     $var wire 8 : mem[9] [7:0] $end
     $var wire 8 ; mem[10] [7:0] $end
     $var wire 8 < mem[11] [7:0] $end
     $var wire 8 = mem[12] [7:0] $end
     $var wire 8 > mem[13] [7:0] $end
     $var wire 8 ? mem[14] [7:0] $end
     $var wire 8 @ mem[15] [7:0] $end
     $var wire 5 A wr_ptr [4:0] $end
     $var wire 5 B rd_ptr [4:0] $end
    $upscope $end
    $scope module u_tx $end
     $var wire 32 i CLK_FREQ_HZ [31:0] $end
     $var wire 32 j BAUD_RATE [31:0] $end
     $var wire 1 d clk $end
     $var wire 1 e rst_n $end
     $var wire 1 ) tx_start $end
     $var wire 8 * tx_data [7:0] $end
     $var wire 1 X tx $end
     $var wire 1 ( busy $end
     $var wire 1 + tx_done $end
     $var wire 32 l DIVISOR [31:0] $end
     $var wire 32 n CNT_W [31:0] $end
     $var wire 4 r DIVISOR_M1 [3:0] $end
     $var wire 2 a state [1:0] $end
     $var wire 4 C baud_cnt [3:0] $end
     $var wire 3 D bit_idx [2:0] $end
     $var wire 8 b shreg [7:0] $end
     $var wire 1 c tx_next $end
    $upscope $end
    $scope module u_tx_fifo $end
     $var wire 32 q DATA_W [31:0] $end
     $var wire 32 m DEPTH [31:0] $end
     $var wire 32 n ADDR_W [31:0] $end
     $var wire 1 d clk $end
     $var wire 1 e rst_n $end
     $var wire 1 f wr_en $end
     $var wire 8 g in_data [7:0] $end
     $var wire 1 - rd_en $end
     $var wire 8 . out_data [7:0] $end
     $var wire 1 # full $end
     $var wire 1 $ empty $end
     $var wire 8 E mem[0] [7:0] $end
     $var wire 8 F mem[1] [7:0] $end
     $var wire 8 G mem[2] [7:0] $end
     $var wire 8 H mem[3] [7:0] $end
     $var wire 8 I mem[4] [7:0] $end
     $var wire 8 J mem[5] [7:0] $end
     $var wire 8 K mem[6] [7:0] $end
     $var wire 8 L mem[7] [7:0] $end
     $var wire 8 M mem[8] [7:0] $end
     $var wire 8 N mem[9] [7:0] $end
     $var wire 8 O mem[10] [7:0] $end
     $var wire 8 P mem[11] [7:0] $end
     $var wire 8 Q mem[12] [7:0] $end
     $var wire 8 R mem[13] [7:0] $end
     $var wire 8 S mem[14] [7:0] $end
     $var wire 8 T mem[15] [7:0] $end
     $var wire 5 U wr_ptr [4:0] $end
     $var wire 5 V rd_ptr [4:0] $end
    $upscope $end
   $upscope $end
  $upscope $end
 $upscope $end
$enddefinitions $end


#0
0#
1$
b00000000 %
0&
1'
0(
0)
b00000000 *
0+
0,
0-
b00000000 .
0/
b00 0
b00000000 1
b00000000 2
b00000000 3
b00000000 4
b00000000 5
b00000000 6
b00000000 7
b00000000 8
b00000000 9
b00000000 :
b00000000 ;
b00000000 <
b00000000 =
b00000000 >
b00000000 ?
b00000000 @
b00000 A
b00000 B
b0000 C
b000 D
b00000000 E
b00000000 F
b00000000 G
b00000000 H
b00000000 I
b00000000 J
b00000000 K
b00000000 L
b00000000 M
b00000000 N
b00000000 O
b00000000 P
b00000000 Q
b00000000 R
b00000000 S
b00000000 T
b00000 U
b00000 V
0W
0X
b00000000 Y
0Z
b00 [
b0000 \
b000 ]
b00000000 ^
0_
0`
b00 a
b00000000 b
1c
0d
0e
0f
b00000000 g
0h
b00000000000011110100001001000000 i
b00000000000000011000011010100000 j
b00000000000000000000000000000010 k
b00000000000000000000000000001010 l
b00000000000000000000000000010000 m
b00000000000000000000000000000100 n
b1001 o
b0101 p
b00000000000000000000000000001000 q
b1001 r
#1
1X
1_
1`
1d
#2
0d
#3
1d
#4
0d
#5
1d
#6
0d
#7
1d
#8
0d
#9
1d
1e
#10
0d
#11
0$
b10100101 E
b00001 U
1d
1f
b10100101 g
#12
0d
#13
1-
b01 0
1d
0f
b00000000 g
#14
0d
#15
0-
b10100101 .
b10 0
b00111100 F
b00010 U
b00001 V
1d
1f
b00111100 g
#16
0d
#17
1)
b10100101 *
b11 0
1d
0f
b00000000 g
#18
0d
#19
1(
0)
b11110000 G
b00011 U
b01 a
b10100101 b
0c
1d
1f
b11110000 g
#20
0d
#21
b00 0
b0001 C
0X
1d
0f
b00000000 g
#22
0d
#23
b0010 C
0_
1d
#24
0d
#25
b0011 C
0`
1d
#26
0d
#27
b0100 C
b01 [
1d
#28
0d
#29
b0101 C
b0001 \
1d
#30
0d
#31
b0110 C
b0010 \
1d
#32
0d
#33
b0111 C
b0011 \
1d
#34
0d
#35
b1000 C
b0100 \
1d
#36
0d
#37
b1001 C
b0101 \
1d
#38
0d
#39
b0000 C
b10 [
b0000 \
b10 a
1c
1d
#40
0d
#41
b0001 C
1X
b0001 \
1d
#42
0d
#43
b0010 C
b0010 \
1_
1d
#44
0d
#45
b0011 C
b0011 \
1`
1d
#46
0d
#47
b0100 C
b0100 \
1d
#48
0d
#49
b0101 C
b0101 \
1d
#50
0d
#51
b0110 C
b0110 \
1d
#52
0d
#53
b0111 C
b0111 \
1d
#54
0d
#55
b1000 C
b1000 \
1d
#56
0d
#57
b1001 C
b1001 \
1d
#58
0d
#59
b0000 C
b001 D
b0000 \
b001 ]
b10000000 ^
b01010010 b
0c
1d
#60
0d
#61
b0001 C
0X
b0001 \
1d
#62
0d
#63
b0010 C
b0010 \
0_
1d
#64
0d
#65
b0011 C
b0011 \
0`
1d
#66
0d
#67
b0100 C
b0100 \
1d
#68
0d
#69
b0101 C
b0101 \
1d
#70
0d
#71
b0110 C
b0110 \
1d
#72
0d
#73
b0111 C
b0111 \
1d
#74
0d
#75
b1000 C
b1000 \
1d
#76
0d
#77
b1001 C
b1001 \
1d
#78
0d
#79
b0000 C
b010 D
b0000 \
b010 ]
b01000000 ^
b00101001 b
1c
1d
#80
0d
#81
b0001 C
1X
b0001 \
1d
#82
0d
#83
b0010 C
b0010 \
1_
1d
#84
0d
#85
b0011 C
b0011 \
1`
1d
#86
0d
#87
b0100 C
b0100 \
1d
#88
0d
#89
b0101 C
b0101 \
1d
#90
0d
#91
b0110 C
b0110 \
1d
#92
0d
#93
b0111 C
b0111 \
1d
#94
0d
#95
b1000 C
b1000 \
1d
#96
0d
#97
b1001 C
b1001 \
1d
#98
0d
#99
b0000 C
b011 D
b0000 \
b011 ]
b10100000 ^
b00010100 b
0c
1d
#100
0d
#101
b0001 C
0X
b0001 \
1d
#102
0d
#103
b0010 C
b0010 \
0_
1d
#104
0d
#105
b0011 C
b0011 \
0`
1d
#106
0d
#107
b0100 C
b0100 \
1d
#108
0d
#109
b0101 C
b0101 \
1d
#110
0d
#111
b0110 C
b0110 \
1d
#112
0d
#113
b0111 C
b0111 \
1d
#114
0d
#115
b1000 C
b1000 \
1d
#116
0d
#117
b1001 C
b1001 \
1d
#118
0d
#119
b0000 C
b100 D
b0000 \
b100 ]
b01010000 ^
b00001010 b
1d
#120
0d
#121
b0001 C
b0001 \
1d
#122
0d
#123
b0010 C
b0010 \
1d
#124
0d
#125
b0011 C
b0011 \
1d
#126
0d
#127
b0100 C
b0100 \
1d
#128
0d
#129
b0101 C
b0101 \
1d
#130
0d
#131
b0110 C
b0110 \
1d
#132
0d
#133
b0111 C
b0111 \
1d
#134
0d
#135
b1000 C
b1000 \
1d
#136
0d
#137
b1001 C
b1001 \
1d
#138
0d
#139
b0000 C
b101 D
b0000 \
b101 ]
b00101000 ^
b00000101 b
1c
1d
#140
0d
#141
b0001 C
1X
b0001 \
1d
#142
0d
#143
b0010 C
b0010 \
1_
1d
#144
0d
#145
b0011 C
b0011 \
1`
1d
#146
0d
#147
b0100 C
b0100 \
1d
#148
0d
#149
b0101 C
b0101 \
1d
#150
0d
#151
b0110 C
b0110 \
1d
#152
0d
#153
b0111 C
b0111 \
1d
#154
0d
#155
b1000 C
b1000 \
1d
#156
0d
#157
b1001 C
b1001 \
1d
#158
0d
#159
b0000 C
b110 D
b0000 \
b110 ]
b10010100 ^
b00000010 b
0c
1d
#160
0d
#161
b0001 C
0X
b0001 \
1d
#162
0d
#163
b0010 C
b0010 \
0_
1d
#164
0d
#165
b0011 C
b0011 \
0`
1d
#166
0d
#167
b0100 C
b0100 \
1d
#168
0d
#169
b0101 C
b0101 \
1d
#170
0d
#171
b0110 C
b0110 \
1d
#172
0d
#173
b0111 C
b0111 \
1d
#174
0d
#175
b1000 C
b1000 \
1d
#176
0d
#177
b1001 C
b1001 \
1d
#178
0d
#179
b0000 C
b111 D
b0000 \
b111 ]
b01001010 ^
b00000001 b
1c
1d
#180
0d
#181
b0001 C
1X
b0001 \
1d
#182
0d
#183
b0010 C
b0010 \
1_
1d
#184
0d
#185
b0011 C
b0011 \
1`
1d
#186
0d
#187
b0100 C
b0100 \
1d
#188
0d
#189
b0101 C
b0101 \
1d
#190
0d
#191
b0110 C
b0110 \
1d
#192
0d
#193
b0111 C
b0111 \
1d
#194
0d
#195
b1000 C
b1000 \
1d
#196
0d
#197
b1001 C
b1001 \
1d
#198
0d
#199
b0000 C
b11 [
b0000 \
b10100101 ^
b11 a
1d
#200
0d
#201
b0001 C
b0001 \
1d
#202
0d
#203
b0010 C
b0010 \
1d
#204
0d
#205
b0011 C
b0011 \
1d
#206
0d
#207
b0100 C
b0100 \
1d
#208
0d
#209
b0101 C
b0101 \
1d
#210
0d
#211
b0110 C
b0110 \
1d
#212
0d
#213
b0111 C
b0111 \
1d
#214
0d
#215
b1000 C
b1000 \
1d
#216
0d
#217
b1001 C
b1001 \
1d
#218
0d
#219
0(
1+
b0000 C
b10100101 Y
1Z
b00 [
b0000 \
b00 a
1d
#220
0d
#221
0+
1,
1-
1/
b01 0
b000 D
0Z
b000 ]
1d
#222
0d
#223
0'
0,
0-
b00111100 .
0/
b10 0
b10100101 1
b00001 A
b00010 V
1d
#224
0d
#225
b10100101 %
1'
1)
b00111100 *
b11 0
b00001 B
1d
1h
#226
0d
#227
1(
0)
b01 a
b00111100 b
0c
1d
0h
#228
0d
#229
b00 0
b0001 C
0X
1d
#230
0d
#231
b0010 C
0_
1d
#232
0d
#233
b0011 C
0`
1d
#234
0d
#235
b0100 C
b01 [
1d
#236
0d
#237
b0101 C
b0001 \
1d
#238
0d
#239
b0110 C
b0010 \
1d
#240
0d
#241
b0111 C
b0011 \
1d
#242
0d
#243
b1000 C
b0100 \
1d
#244
0d
#245
b1001 C
b0101 \
1d
#246
0d
#247
b0000 C
b10 [
b0000 \
b00000000 ^
b10 a
1d
#248
0d
#249
b0001 C
b0001 \
1d
#250
0d
#251
b0010 C
b0010 \
1d
#252
0d
#253
b0011 C
b0011 \
1d
#254
0d
#255
b0100 C
b0100 \
1d
#256
0d
#257
b0101 C
b0101 \
1d
#258
0d
#259
b0110 C
b0110 \
1d
#260
0d
#261
b0111 C
b0111 \
1d
#262
0d
#263
b1000 C
b1000 \
1d
#264
0d
#265
b1001 C
b1001 \
1d
#266
0d
#267
b0000 C
b001 D
b0000 \
b001 ]
b00011110 b
1d
#268
0d
#269
b0001 C
b0001 \
1d
#270
0d
#271
b0010 C
b0010 \
1d
#272
0d
#273
b0011 C
b0011 \
1d
#274
0d
#275
b0100 C
b0100 \
1d
#276
0d
#277
b0101 C
b0101 \
1d
#278
0d
#279
b0110 C
b0110 \
1d
#280
0d
#281
b0111 C
b0111 \
1d
#282
0d
#283
b1000 C
b1000 \
1d
#284
0d
#285
b1001 C
b1001 \
1d
#286
0d
#287
b0000 C
b010 D
b0000 \
b010 ]
b00001111 b
1c
1d
#288
0d
#289
b0001 C
1X
b0001 \
1d
#290
0d
#291
b0010 C
b0010 \
1_
1d
#292
0d
#293
b0011 C
b0011 \
1`
1d
#294
0d
#295
b0100 C
b0100 \
1d
#296
0d
#297
b0101 C
b0101 \
1d
#298
0d
#299
b0110 C
b0110 \
1d
#300
0d
#301
b0111 C
b0111 \
1d
#302
0d
#303
b1000 C
b1000 \
1d
#304
0d
#305
b1001 C
b1001 \
1d
#306
0d
#307
b0000 C
b011 D
b0000 \
b011 ]
b10000000 ^
b00000111 b
1d
#308
0d
#309
b0001 C
b0001 \
1d
#310
0d
#311
b0010 C
b0010 \
1d
#312
0d
#313
b0011 C
b0011 \
1d
#314
0d
#315
b0100 C
b0100 \
1d
#316
0d
#317
b0101 C
b0101 \
1d
#318
0d
#319
b0110 C
b0110 \
1d
#320
0d
#321
b0111 C
b0111 \
1d
#322
0d
#323
b1000 C
b1000 \
1d
#324
0d
#325
b1001 C
b1001 \
1d
#326
0d
#327
b0000 C
b100 D
b0000 \
b100 ]
b11000000 ^
b00000011 b
1d
#328
0d
#329
b0001 C
b0001 \
1d
#330
0d
#331
b0010 C
b0010 \
1d
#332
0d
#333
b0011 C
b0011 \
1d
#334
0d
#335
b0100 C
b0100 \
1d
#336
0d
#337
b0101 C
b0101 \
1d
#338
0d
#339
b0110 C
b0110 \
1d
#340
0d
#341
b0111 C
b0111 \
1d
#342
0d
#343
b1000 C
b1000 \
1d
#344
0d
#345
b1001 C
b1001 \
1d
#346
0d
#347
b0000 C
b101 D
b0000 \
b101 ]
b11100000 ^
b00000001 b
1d
#348
0d
#349
b0001 C
b0001 \
1d
#350
0d
#351
b0010 C
b0010 \
1d
#352
0d
#353
b0011 C
b0011 \
1d
#354
0d
#355
b0100 C
b0100 \
1d
#356
0d
#357
b0101 C
b0101 \
1d
#358
0d
#359
b0110 C
b0110 \
1d
#360
0d
#361
b0111 C
b0111 \
1d
#362
0d
#363
b1000 C
b1000 \
1d
#364
0d
#365
b1001 C
b1001 \
1d
#366
0d
#367
b0000 C
b110 D
b0000 \
b110 ]
b11110000 ^
b00000000 b
0c
1d
#368
0d
#369
b0001 C
0X
b0001 \
1d
#370
0d
#371
b0010 C
b0010 \
0_
1d
#372
0d
#373
b0011 C
b0011 \
0`
1d
#374
0d
#375
b0100 C
b0100 \
1d
#376
0d
#377
b0101 C
b0101 \
1d
#378
0d
#379
b0110 C
b0110 \
1d
#380
0d
#381
b0111 C
b0111 \
1d
#382
0d
#383
b1000 C
b1000 \
1d
#384
0d
#385
b1001 C
b1001 \
1d
#386
0d
#387
b0000 C
b111 D
b0000 \
b111 ]
b01111000 ^
1d
#388
0d
#389
b0001 C
b0001 \
1d
#390
0d
#391
b0010 C
b0010 \
1d
#392
0d
#393
b0011 C
b0011 \
1d
#394
0d
#395
b0100 C
b0100 \
1d
#396
0d
#397
b0101 C
b0101 \
1d
#398
0d
#399
b0110 C
b0110 \
1d
#400
0d
#401
b0111 C
b0111 \
1d
#402
0d
#403
b1000 C
b1000 \
1d
#404
0d
#405
b1001 C
b1001 \
1d
#406
0d
#407
b0000 C
b11 [
b0000 \
b00111100 ^
b11 a
1c
1d
#408
0d
#409
b0001 C
1X
b0001 \
1d
#410
0d
#411
b0010 C
b0010 \
1_
1d
#412
0d
#413
b0011 C
b0011 \
1`
1d
#414
0d
#415
b0100 C
b0100 \
1d
#416
0d
#417
b0101 C
b0101 \
1d
#418
0d
#419
b0110 C
b0110 \
1d
#420
0d
#421
b0111 C
b0111 \
1d
#422
0d
#423
b1000 C
b1000 \
1d
#424
0d
#425
b1001 C
b1001 \
1d
#426
0d
#427
0(
1+
b0000 C
b00111100 Y
1Z
b00 [
b0000 \
b00 a
1d
#428
0d
#429
0+
1,
1-
1/
b01 0
b000 D
0Z
b000 ]
1d
#430
0d
#431
1$
0'
0,
0-
b11110000 .
0/
b10 0
b00111100 2
b00010 A
b00011 V
1d
#432
0d
#433
b00111100 %
1'
1)
b11110000 *
b11 0
b00010 B
1d
1h
#434
0d
#435
1(
0)
b01 a
b11110000 b
0c
1d
0h
#436
0d
#437
b00 0
b0001 C
0X
1d
#438
0d
#439
b0010 C
0_
1d
#440
0d
#441
b0011 C
0`
1d
#442
0d
#443
b0100 C
b01 [
1d
#444
0d
#445
b0101 C
b0001 \
1d
#446
0d
#447
b0110 C
b0010 \
1d
#448
0d
#449
b0111 C
b0011 \
1d
#450
0d
#451
b1000 C
b0100 \
1d
#452
0d
#453
b1001 C
b0101 \
1d
#454
0d
#455
b0000 C
b10 [
b0000 \
b00000000 ^
b10 a
1d
#456
0d
#457
b0001 C
b0001 \
1d
#458
0d
#459
b0010 C
b0010 \
1d
#460
0d
#461
b0011 C
b0011 \
1d
#462
0d
#463
b0100 C
b0100 \
1d
#464
0d
#465
b0101 C
b0101 \
1d
#466
0d
#467
b0110 C
b0110 \
1d
#468
0d
#469
b0111 C
b0111 \
1d
#470
0d
#471
b1000 C
b1000 \
1d
#472
0d
#473
b1001 C
b1001 \
1d
#474
0d
#475
b0000 C
b001 D
b0000 \
b001 ]
b01111000 b
1d
#476
0d
#477
b0001 C
b0001 \
1d
#478
0d
#479
b0010 C
b0010 \
1d
#480
0d
#481
b0011 C
b0011 \
1d
#482
0d
#483
b0100 C
b0100 \
1d
#484
0d
#485
b0101 C
b0101 \
1d
#486
0d
#487
b0110 C
b0110 \
1d
#488
0d
#489
b0111 C
b0111 \
1d
#490
0d
#491
b1000 C
b1000 \
1d
#492
0d
#493
b1001 C
b1001 \
1d
#494
0d
#495
b0000 C
b010 D
b0000 \
b010 ]
b00111100 b
1d
#496
0d
#497
b0001 C
b0001 \
1d
#498
0d
#499
b0010 C
b0010 \
1d
#500
0d
#501
b0011 C
b0011 \
1d
#502
0d
#503
b0100 C
b0100 \
1d
#504
0d
#505
b0101 C
b0101 \
1d
#506
0d
#507
b0110 C
b0110 \
1d
#508
0d
#509
b0111 C
b0111 \
1d
#510
0d
#511
b1000 C
b1000 \
1d
#512
0d
#513
b1001 C
b1001 \
1d
#514
0d
#515
b0000 C
b011 D
b0000 \
b011 ]
b00011110 b
1d
#516
0d
#517
b0001 C
b0001 \
1d
#518
0d
#519
b0010 C
b0010 \
1d
#520
0d
#521
b0011 C
b0011 \
1d
#522
0d
#523
b0100 C
b0100 \
1d
#524
0d
#525
b0101 C
b0101 \
1d
#526
0d
#527
b0110 C
b0110 \
1d
#528
0d
#529
b0111 C
b0111 \
1d
#530
0d
#531
b1000 C
b1000 \
1d
#532
0d
#533
b1001 C
b1001 \
1d
#534
0d
#535
b0000 C
b100 D
b0000 \
b100 ]
b00001111 b
1c
1d
#536
0d
#537
b0001 C
1X
b0001 \
1d
#538
0d
#539
b0010 C
b0010 \
1_
1d
#540
0d
#541
b0011 C
b0011 \
1`
1d
#542
0d
#543
b0100 C
b0100 \
1d
#544
0d
#545
b0101 C
b0101 \
1d
#546
0d
#547
b0110 C
b0110 \
1d
#548
0d
#549
b0111 C
b0111 \
1d
#550
0d
#551
b1000 C
b1000 \
1d
#552
0d
#553
b1001 C
b1001 \
1d
#554
0d
#555
b0000 C
b101 D
b0000 \
b101 ]
b10000000 ^
b00000111 b
1d
#556
0d
#557
b0001 C
b0001 \
1d
#558
0d
#559
b0010 C
b0010 \
1d
#560
0d
#561
b0011 C
b0011 \
1d
#562
0d
#563
b0100 C
b0100 \
1d
#564
0d
#565
b0101 C
b0101 \
1d
#566
0d
#567
b0110 C
b0110 \
1d
#568
0d
#569
b0111 C
b0111 \
1d
#570
0d
#571
b1000 C
b1000 \
1d
#572
0d
#573
b1001 C
b1001 \
1d
#574
0d
#575
b0000 C
b110 D
b0000 \
b110 ]
b11000000 ^
b00000011 b
1d
#576
0d
#577
b0001 C
b0001 \
1d
#578
0d
#579
b0010 C
b0010 \
1d
#580
0d
#581
b0011 C
b0011 \
1d
#582
0d
#583
b0100 C
b0100 \
1d
#584
0d
#585
b0101 C
b0101 \
1d
#586
0d
#587
b0110 C
b0110 \
1d
#588
0d
#589
b0111 C
b0111 \
1d
#590
0d
#591
b1000 C
b1000 \
1d
#592
0d
#593
b1001 C
b1001 \
1d
#594
0d
#595
b0000 C
b111 D
b0000 \
b111 ]
b11100000 ^
b00000001 b
1d
#596
0d
#597
b0001 C
b0001 \
1d
#598
0d
#599
b0010 C
b0010 \
1d
#600
0d
#601
b0011 C
b0011 \
1d
#602
0d
#603
b0100 C
b0100 \
1d
#604
0d
#605
b0101 C
b0101 \
1d
#606
0d
#607
b0110 C
b0110 \
1d
#608
0d
#609
b0111 C
b0111 \
1d
#610
0d
#611
b1000 C
b1000 \
1d
#612
0d
#613
b1001 C
b1001 \
1d
#614
0d
#615
b0000 C
b11 [
b0000 \
b11110000 ^
b11 a
1d
#616
0d
#617
b0001 C
b0001 \
1d
#618
0d
#619
b0010 C
b0010 \
1d
#620
0d
#621
b0011 C
b0011 \
1d
#622
0d
#623
b0100 C
b0100 \
1d
#624
0d
#625
b0101 C
b0101 \
1d
#626
0d
#627
b0110 C
b0110 \
1d
#628
0d
#629
b0111 C
b0111 \
1d
#630
0d
#631
b1000 C
b1000 \
1d
#632
0d
#633
b1001 C
b1001 \
1d
#634
0d
#635
0(
1+
b0000 C
b11110000 Y
1Z
b00 [
b0000 \
b00 a
1d
#636
0d
#637
0+
1,
1/
b000 D
0Z
b000 ]
1d
#638
0d
#639
0'
0,
0/
b11110000 3
b00011 A
1d
#640
0d
#641
b11110000 %
1'
b00011 B
1d
1h
#642
0d
#643
1d
0h
