tb_uart_csr.vcd
$version Generated by VerilatedVcd $end
$timescale 1ps $end
 $scope module TOP $end
  $scope module tb_uart_csr $end
   $var wire 32 D CLK_FREQ_HZ [31:0] $end
   $var wire 32 E BAUD_RATE [31:0] $end
   $var wire 32 F DIVISOR [31:0] $end
   $var wire 1 B clk $end
   $var wire 1 # rst_n $end
   $var wire 1 $ wr_en $end
   $var wire 4 % wstrb [3:0] $end
   $var wire 4 & addr [3:0] $end
   $var wire 32 ' wdata [31:0] $end
   $var wire 1 ( rd_en $end
   $var wire 32 C rdata [31:0] $end
   $var wire 1 + tx_serial $end
   $var wire 1 + rx_serial $end
   $var wire 32 ) status_val [31:0] $end
   $var wire 32 * rxdata_val [31:0] $end
   $scope module dut $end
    $var wire 32 D CLK_FREQ_HZ [31:0] $end
    $var wire 32 E BAUD_RATE [31:0] $end
    $var wire 1 B clk $end
    $var wire 1 # rst_n $end
    $var wire 1 $ wr_en $end
    $var wire 4 % wstrb [3:0] $end
    $var wire 4 & addr [3:0] $end
    $var wire 32 ' wdata [31:0] $end
    $var wire 1 ( rd_en $end
    $var wire 32 C rdata [31:0] $end
    $var wire 1 + tx_serial $end
    $var wire 1 + rx_serial $end
    $var wire 1 , tx_start $end
    $var wire 8 - tx_data [7:0] $end
    $var wire 1 . tx_busy $end
    $var wire 1 / tx_done $end
    $var wire 8 0 rx_data [7:0] $end
    $var wire 1 1 rx_valid $end
    $var wire 1 2 framing_error $end
    $scope module u_csr $end
     $var wire 1 B clk $end
     $var wire 1 # rst_n $end
     $var wire 1 $ wr_en $end
     $var wire 4 % wstrb [3:0] $end
     $var wire 4 & addr [3:0] $end
     $var wire 32 ' wdata [31:0] $end
     $var wire 1 ( rd_en $end
     $var wire 32 C rdata [31:0] $end
     $var wire 1 , tx_start $end
     $var wire 8 - tx_data [7:0] $end
     $var wire 1 . tx_busy $end
     $var wire 1 / tx_done $end
     $var wire 8 0 rx_data_in [7:0] $end
     $var wire 1 1 rx_valid_in $end
     $var wire 1 2 framing_error_in $end
     $var wire 8 - tx_data_reg [7:0] $end
     $var wire 1 3 rx_enable_reg $end
     $var wire 1 4 rx_valid_sticky $end
     $var wire 1 5 framing_error_sticky $end
     $var wire 8 6 rx_data_reg [7:0] $end
     $var wire 1 , tx_start_pulse $end
    $upscope $end
    $scope module u_rx $end
     $var wire 32 D CLK_FREQ_HZ [31:0] $end
     $var wire 32 E BAUD_RATE [31:0] $end
     $var wire 1 B clk $end
     $var wire 1 # rst_n $end
     $var wire 1 + rx $end
     $var wire 8 0 rx_data [7:0] $end
     $var wire 1 1 rx_valid $end
     $var wire 1 2 framing_error $end
     $var wire 32 F DIVISOR [31:0] $end
     $var wire 32 G CNT_W [31:0] $end
     $var wire 4 H DIVISOR_M1 [3:0] $end
     $var wire 4 I MID_COUNT [3:0] $end
     $var wire 2 7 state [1:0] $end
     $var wire 4 8 cnt [3:0] $end
     $var wire 3 9 bit_idx [2:0] $end
     $var wire 8 : shreg [7:0] $end
     $var wire 1 ; rx_s1 $end
     $var wire 1 < rx_s2 $end
    $upscope $end
    $scope module u_tx $end
     $var wire 32 D CLK_FREQ_HZ [31:0] $end
     $var wire 32 E BAUD_RATE [31:0] $end
     $var wire 1 B clk $end
     $var wire 1 # rst_n $end
     $var wire 1 , tx_start $end
     $var wire 8 - tx_data [7:0] $end
     $var wire 1 + tx $end
     $var wire 1 . busy $end
     $var wire 1 / tx_done $end
     $var wire 32 F DIVISOR [31:0] $end
     $var wire 32 G CNT_W [31:0] $end
     $var wire 4 H DIVISOR_M1 [3:0] $end
     $var wire 3 = state [2:0] $end
     $var wire 4 > baud_cnt [3:0] $end
     $var wire 1 ? baud_tick $end
     $var wire 3 @ bit_idx [2:0] $end
     $var wire 8 A shreg [7:0] $end
    $upscope $end
   $upscope $end
  $upscope $end
 $upscope $end
$enddefinitions $end


#0
0#
0$
b0000 %
b0000 &
b00000000000000000000000000000000 '
0(
b00000000000000000000000000000000 )
b00000000000000000000000000000000 *
0+
0,
b00000000 -
0.
0/
b00000000 0
01
02
03
04
05
b00000000 6
b00 7
b0000 8
b000 9
b00000000 :
0;
0<
b000 =
b0000 >
0?
b000 @
b00000000 A
0B
b00000000000000000000000000000000 C
b00000000000011110100001001000000 D
b00000000000000011000011010100000 E
b00000000000000000000000000001010 F
b00000000000000000000000000000100 G
b1001 H
b0101 I
#1
1+
1;
1<
1B
#2
0B
#3
1B
#4
0B
#5
1B
#6
0B
#7
1B
#8
0B
#9
1#
b0001 >
1B
#10
0B
#11
1$
b1111 %
b1000 &
b00000000000000000000000010100101 '
b10100101 -
b0010 >
1B
#12
0B
#13
0$
b0011 >
1B
#14
0B
#15
1$
b0000 &
b00000000000000000000000000000001 '
1,
b0100 >
1B
#16
0B
#17
0$
0,
1.
b001 =
b0101 >
b10100101 A
1B
#18
0B
#19
b0100 &
1(
b0110 >
1B
b00000000000000000000000000000001 C
#20
0B
#21
0(
b00000000000000000000000000000001 )
b0111 >
1B
b00000000000000000000000000000000 C
#22
0B
#23
1(
b1000 >
1B
b00000000000000000000000000000001 C
#24
0B
#25
0(
b1001 >
1B
b00000000000000000000000000000000 C
#26
0B
#27
1(
b0000 >
1?
1B
b00000000000000000000000000000001 C
#28
0B
#29
0(
0+
b010 =
b0001 >
0?
1B
b00000000000000000000000000000000 C
#30
0B
#31
1(
0;
b0010 >
1B
b00000000000000000000000000000001 C
#32
0B
#33
0(
0<
b0011 >
1B
b00000000000000000000000000000000 C
#34
0B
#35
1(
b01 7
b0100 >
1B
b00000000000000000000000000000001 C
#36
0B
#37
0(
b0001 8
b0101 >
1B
b00000000000000000000000000000000 C
#38
0B
#39
1(
b0010 8
b0110 >
1B
b00000000000000000000000000000001 C
#40
0B
#41
0(
b0011 8
b0111 >
1B
b00000000000000000000000000000000 C
#42
0B
#43
1(
b0100 8
b1000 >
1B
b00000000000000000000000000000001 C
#44
0B
#45
0(
b0101 8
b1001 >
1B
b00000000000000000000000000000000 C
#46
0B
#47
1(
b10 7
b0000 8
b0000 >
1?
1B
b00000000000000000000000000000001 C
#48
0B
#49
0(
1+
b0001 8
b0001 >
0?
b001 @
b01010010 A
1B
b00000000000000000000000000000000 C
#50
0B
#51
1(
b0010 8
1;
b0010 >
1B
b00000000000000000000000000000001 C
#52
0B
#53
0(
b0011 8
1<
b0011 >
1B
b00000000000000000000000000000000 C
#54
0B
#55
1(
b0100 8
b0100 >
1B
b00000000000000000000000000000001 C
#56
0B
#57
0(
b0101 8
b0101 >
1B
b00000000000000000000000000000000 C
#58
0B
#59
1(
b0110 8
b0110 >
1B
b00000000000000000000000000000001 C
#60
0B
#61
0(
b0111 8
b0111 >
1B
b00000000000000000000000000000000 C
#62
0B
#63
1(
b1000 8
b1000 >
1B
b00000000000000000000000000000001 C
#64
0B
#65
0(
b1001 8
b1001 >
1B
b00000000000000000000000000000000 C
#66
0B
#67
1(
b0000 8
b001 9
b10000000 :
b0000 >
1?
1B
b00000000000000000000000000000001 C
#68
0B
#69
0(
0+
b0001 8
b0001 >
0?
b010 @
b00101001 A
1B
b00000000000000000000000000000000 C
#70
0B
#71
1(
b0010 8
0;
b0010 >
1B
b00000000000000000000000000000001 C
#72
0B
#73
0(
b0011 8
0<
b0011 >
1B
b00000000000000000000000000000000 C
#74
0B
#75
1(
b0100 8
b0100 >
1B
b00000000000000000000000000000001 C
#76
0B
#77
0(
b0101 8
b0101 >
1B
b00000000000000000000000000000000 C
#78
0B
#79
1(
b0110 8
b0110 >
1B
b00000000000000000000000000000001 C
#80
0B
#81
0(
b0111 8
b0111 >
1B
b00000000000000000000000000000000 C
#82
0B
#83
1(
b1000 8
b1000 >
1B
b00000000000000000000000000000001 C
#84
0B
#85
0(
b1001 8
b1001 >
1B
b00000000000000000000000000000000 C
#86
0B
#87
1(
b0000 8
b010 9
b01000000 :
b0000 >
1?
1B
b00000000000000000000000000000001 C
#88
0B
#89
0(
1+
b0001 8
b0001 >
0?
b011 @
b00010100 A
1B
b00000000000000000000000000000000 C
#90
0B
#91
1(
b0010 8
1;
b0010 >
1B
b00000000000000000000000000000001 C
#92
0B
#93
0(
b0011 8
1<
b0011 >
1B
b00000000000000000000000000000000 C
#94
0B
#95
1(
b0100 8
b0100 >
1B
b00000000000000000000000000000001 C
#96
0B
#97
0(
b0101 8
b0101 >
1B
b00000000000000000000000000000000 C
#98
0B
#99
1(
b0110 8
b0110 >
1B
b00000000000000000000000000000001 C
#100
0B
#101
0(
b0111 8
b0111 >
1B
b00000000000000000000000000000000 C
#102
0B
#103
1(
b1000 8
b1000 >
1B
b00000000000000000000000000000001 C
#104
0B
#105
0(
b1001 8
b1001 >
1B
b00000000000000000000000000000000 C
#106
0B
#107
1(
b0000 8
b011 9
b10100000 :
b0000 >
1?
1B
b00000000000000000000000000000001 C
#108
0B
#109
0(
0+
b0001 8
b0001 >
0?
b100 @
b00001010 A
1B
b00000000000000000000000000000000 C
#110
0B
#111
1(
b0010 8
0;
b0010 >
1B
b00000000000000000000000000000001 C
#112
0B
#113
0(
b0011 8
0<
b0011 >
1B
b00000000000000000000000000000000 C
#114
0B
#115
1(
b0100 8
b0100 >
1B
b00000000000000000000000000000001 C
#116
0B
#117
0(
b0101 8
b0101 >
1B
b00000000000000000000000000000000 C
#118
0B
#119
1(
b0110 8
b0110 >
1B
b00000000000000000000000000000001 C
#120
0B
#121
0(
b0111 8
b0111 >
1B
b00000000000000000000000000000000 C
#122
0B
#123
1(
b1000 8
b1000 >
1B
b00000000000000000000000000000001 C
#124
0B
#125
0(
b1001 8
b1001 >
1B
b00000000000000000000000000000000 C
#126
0B
#127
1(
b0000 8
b100 9
b01010000 :
b0000 >
1?
1B
b00000000000000000000000000000001 C
#128
0B
#129
0(
b0001 8
b0001 >
0?
b101 @
b00000101 A
1B
b00000000000000000000000000000000 C
#130
0B
#131
1(
b0010 8
b0010 >
1B
b00000000000000000000000000000001 C
#132
0B
#133
0(
b0011 8
b0011 >
1B
b00000000000000000000000000000000 C
#134
0B
#135
1(
b0100 8
b0100 >
1B
b00000000000000000000000000000001 C
#136
0B
#137
0(
b0101 8
b0101 >
1B
b00000000000000000000000000000000 C
#138
0B
#139
1(
b0110 8
b0110 >
1B
b00000000000000000000000000000001 C
#140
0B
#141
0(
b0111 8
b0111 >
1B
b00000000000000000000000000000000 C
#142
0B
#143
1(
b1000 8
b1000 >
1B
b00000000000000000000000000000001 C
#144
0B
#145
0(
b1001 8
b1001 >
1B
b00000000000000000000000000000000 C
#146
0B
#147
1(
b0000 8
b101 9
b00101000 :
b0000 >
1?
1B
b00000000000000000000000000000001 C
#148
0B
#149
0(
1+
b0001 8
b0001 >
0?
b110 @
b00000010 A
1B
b00000000000000000000000000000000 C
#150
0B
#151
1(
b0010 8
1;
b0010 >
1B
b00000000000000000000000000000001 C
#152
0B
#153
0(
b0011 8
1<
b0011 >
1B
b00000000000000000000000000000000 C
#154
0B
#155
1(
b0100 8
b0100 >
1B
b00000000000000000000000000000001 C
#156
0B
#157
0(
b0101 8
b0101 >
1B
b00000000000000000000000000000000 C
#158
0B
#159
1(
b0110 8
b0110 >
1B
b00000000000000000000000000000001 C
#160
0B
#161
0(
b0111 8
b0111 >
1B
b00000000000000000000000000000000 C
#162
0B
#163
1(
b1000 8
b1000 >
1B
b00000000000000000000000000000001 C
#164
0B
#165
0(
b1001 8
b1001 >
1B
b00000000000000000000000000000000 C
#166
0B
#167
1(
b0000 8
b110 9
b10010100 :
b0000 >
1?
1B
b00000000000000000000000000000001 C
#168
0B
#169
0(
0+
b0001 8
b0001 >
0?
b111 @
b00000001 A
1B
b00000000000000000000000000000000 C
#170
0B
#171
1(
b0010 8
0;
b0010 >
1B
b00000000000000000000000000000001 C
#172
0B
#173
0(
b0011 8
0<
b0011 >
1B
b00000000000000000000000000000000 C
#174
0B
#175
1(
b0100 8
b0100 >
1B
b00000000000000000000000000000001 C
#176
0B
#177
0(
b0101 8
b0101 >
1B
b00000000000000000000000000000000 C
#178
0B
#179
1(
b0110 8
b0110 >
1B
b00000000000000000000000000000001 C
#180
0B
#181
0(
b0111 8
b0111 >
1B
b00000000000000000000000000000000 C
#182
0B
#183
1(
b1000 8
b1000 >
1B
b00000000000000000000000000000001 C
#184
0B
#185
0(
b1001 8
b1001 >
1B
b00000000000000000000000000000000 C
#186
0B
#187
1(
b0000 8
b111 9
b01001010 :
b0000 >
1?
1B
b00000000000000000000000000000001 C
#188
0B
#189
0(
1+
b0001 8
b011 =
b0001 >
0?
b00000000 A
1B
b00000000000000000000000000000000 C
#190
0B
#191
1(
b0010 8
1;
b0010 >
1B
b00000000000000000000000000000001 C
#192
0B
#193
0(
b0011 8
1<
b0011 >
1B
b00000000000000000000000000000000 C
#194
0B
#195
1(
b0100 8
b0100 >
1B
b00000000000000000000000000000001 C
#196
0B
#197
0(
b0101 8
b0101 >
1B
b00000000000000000000000000000000 C
#198
0B
#199
1(
b0110 8
b0110 >
1B
b00000000000000000000000000000001 C
#200
0B
#201
0(
b0111 8
b0111 >
1B
b00000000000000000000000000000000 C
#202
0B
#203
1(
b1000 8
b1000 >
1B
b00000000000000000000000000000001 C
#204
0B
#205
0(
b1001 8
b1001 >
1B
b00000000000000000000000000000000 C
#206
0B
#207
1(
b11 7
b0000 8
b10100101 :
b0000 >
1?
1B
b00000000000000000000000000000001 C
#208
0B
#209
0(
b0001 8
b100 =
b0001 >
0?
1B
b00000000000000000000000000000000 C
#210
0B
#211
1(
1/
b0010 8
b000 =
b0010 >
1B
b00000000000000000000000000000001 C
#212
0B
#213
0(
0.
0/
b0011 8
b0011 >
1B
b00000000000000000000000000000000 C
#214
0B
#215
1(
b0100 8
b0100 >
1B
#216
0B
#217
0(
b00000000000000000000000000000000 )
b0101 8
b0101 >
1B
#218
0B
#219
1(
b0110 8
b0110 >
1B
#220
0B
#221
0(
b0111 8
b0111 >
1B
#222
0B
#223
1(
b1000 8
b1000 >
1B
#224
0B
#225
0(
b1001 8
b1001 >
1B
#226
0B
#227
1(
b10100101 0
11
b00 7
b0000 8
b0000 >
1?
1B
#228
0B
#229
0(
01
14
b10100101 6
b000 9
b0001 >
0?
1B
#230
0B
#231
1(
b0010 >
1B
b00000000000000000000000000000010 C
#232
0B
#233
0(
b00000000000000000000000000000010 )
b0011 >
1B
b00000000000000000000000000000000 C
#234
0B
#235
b1100 &
1(
b0100 >
1B
b00000000000000000000000010100101 C
#236
0B
#237
0(
b00000000000000000000000010100101 *
b0101 >
1B
b00000000000000000000000000000000 C
#238
0B
#239
1$
b0100 &
b00000000000000000000000000000110 '
04
b0110 >
1B
#240
0B
#241
0$
b0111 >
1B
#242
0B
#243
1(
b1000 >
1B
#244
0B
#245
0(
b00000000000000000000000000000000 )
b1001 >
1B
#246
0B
#247
b0000 >
1?
1B
#248
0B
#249
b0001 >
0?
1B
#250
0B
#251
b0010 >
1B
#252
0B
#253
b0011 >
1B
#254
0B
#255
b0100 >
1B
#256
0B
#257
b0101 >
1B
#258
0B
#259
b0110 >
1B
#260
0B
#261
b0111 >
1B
#262
0B
#263
b1000 >
1B
#264
0B
#265
b1001 >
1B
#266
0B
#267
b0000 >
1?
1B
#268
0B
#269
b0001 >
0?
1B
#270
0B
#271
b0010 >
1B
#272
0B
#273
b0011 >
1B
#274
0B
#275
b0100 >
1B
#276
0B
#277
b0101 >
1B
#278
0B
#279
b0110 >
1B
#280
0B
#281
b0111 >
1B
#282
0B
#283
b1000 >
1B
#284
0B
#285
b1001 >
1B
