tb_uart_rx.vcd
$version Generated by VerilatedVcd $end
$timescale 1ps $end
 $scope module TOP $end
  $scope module tb_uart_rx $end
   $var wire 32 0 CLK_FREQ_HZ [31:0] $end
   $var wire 32 1 BAUD_RATE [31:0] $end
   $var wire 32 2 DIVISOR [31:0] $end
   $var wire 1 , clk $end
   $var wire 1 - rst_n $end
   $var wire 1 . rx $end
   $var wire 8 # rx_data [7:0] $end
   $var wire 1 $ rx_valid $end
   $var wire 1 % framing_error $end
   $var wire 32 / send_byte__Vstatic__i [31:0] $end
   $scope module dut $end
    $var wire 32 0 CLK_FREQ_HZ [31:0] $end
    $var wire 32 1 BAUD_RATE [31:0] $end
    $var wire 1 , clk $end
    $var wire 1 - rst_n $end
    $var wire 1 . rx $end
    $var wire 8 # rx_data [7:0] $end
    $var wire 1 $ rx_valid $end
    $var wire 1 % framing_error $end
    $var wire 32 2 DIVISOR [31:0] $end
    $var wire 32 3 CNT_W [31:0] $end
    $var wire 4 4 DIVISOR_M1 [3:0] $end
    $var wire 4 5 MID_COUNT [3:0] $end
    $var wire 2 & state [1:0] $end
    $var wire 4 ' cnt [3:0] $end
    $var wire 3 ( bit_idx [2:0] $end
    $var wire 8 ) shreg [7:0] $end
    $var wire 1 * rx_s1 $end
    $var wire 1 + rx_s2 $end
   $upscope $end
  $upscope $end
 $upscope $end
$enddefinitions $end


#0
b00000000 #
0$
0%
b00 &
b0000 '
b000 (
b00000000 )
0*
0+
0,
0-
1.
b00000000000000000000000000000000 /
b00000000000011110100001001000000 0
b00000000000000011000011010100000 1
b00000000000000000000000000001010 2
b00000000000000000000000000000100 3
b1001 4
b0101 5
#1
1*
1+
1,
#2
0,
#3
1,
#4
0,
#5
1,
1-
#6
0,
#7
1,
#8
0,
#9
1,
#10
0,
#11
1,
#12
0,
#13
1,
#14
0,
#15
1,
#16
0,
#17
1,
#18
0,
#19
1,
#20
0,
#21
1,
#22
0,
#23
1,
#24
0,
#25
0*
1,
0.
#26
0,
#27
0+
1,
#28
0,
#29
b01 &
1,
#30
0,
#31
b0001 '
1,
#32
0,
#33
b0010 '
1,
#34
0,
#35
b0011 '
1,
#36
0,
#37
b0100 '
1,
#38
0,
#39
b0101 '
1,
#40
0,
#41
b10 &
b0000 '
1,
#42
0,
#43
b0001 '
1,
#44
0,
#45
b0010 '
1*
1,
1.
#46
0,
#47
b0011 '
1+
1,
#48
0,
#49
b0100 '
1,
#50
0,
#51
b0101 '
1,
#52
0,
#53
b0110 '
1,
#54
0,
#55
b0111 '
1,
#56
0,
#57
b1000 '
1,
#58
0,
#59
b1001 '
1,
#60
0,
#61
b0000 '
b001 (
b10000000 )
1,
#62
0,
#63
b0001 '
1,
#64
0,
#65
b0010 '
0*
1,
0.
b00000000000000000000000000000001 /
#66
0,
#67
b0011 '
0+
1,
#68
0,
#69
b0100 '
1,
#70
0,
#71
b0101 '
1,
#72
0,
#73
b0110 '
1,
#74
0,
#75
b0111 '
1,
#76
0,
#77
b1000 '
1,
#78
0,
#79
b1001 '
1,
#80
0,
#81
b0000 '
b010 (
b01000000 )
1,
#82
0,
#83
b0001 '
1,
#84
0,
#85
b0010 '
1*
1,
1.
b00000000000000000000000000000010 /
#86
0,
#87
b0011 '
1+
1,
#88
0,
#89
b0100 '
1,
#90
0,
#91
b0101 '
1,
#92
0,
#93
b0110 '
1,
#94
0,
#95
b0111 '
1,
#96
0,
#97
b1000 '
1,
#98
0,
#99
b1001 '
1,
#100
0,
#101
b0000 '
b011 (
b10100000 )
1,
#102
0,
#103
b0001 '
1,
#104
0,
#105
b0010 '
0*
1,
0.
b00000000000000000000000000000011 /
#106
0,
#107
b0011 '
0+
1,
#108
0,
#109
b0100 '
1,
#110
0,
#111
b0101 '
1,
#112
0,
#113
b0110 '
1,
#114
0,
#115
b0111 '
1,
#116
0,
#117
b1000 '
1,
#118
0,
#119
b1001 '
1,
#120
0,
#121
b0000 '
b100 (
b01010000 )
1,
#122
0,
#123
b0001 '
1,
#124
0,
#125
b0010 '
1,
b00000000000000000000000000000100 /
#126
0,
#127
b0011 '
1,
#128
0,
#129
b0100 '
1,
#130
0,
#131
b0101 '
1,
#132
0,
#133
b0110 '
1,
#134
0,
#135
b0111 '
1,
#136
0,
#137
b1000 '
1,
#138
0,
#139
b1001 '
1,
#140
0,
#141
b0000 '
b101 (
b00101000 )
1,
#142
0,
#143
b0001 '
1,
#144
0,
#145
b0010 '
1*
1,
1.
b00000000000000000000000000000101 /
#146
0,
#147
b0011 '
1+
1,
#148
0,
#149
b0100 '
1,
#150
0,
#151
b0101 '
1,
#152
0,
#153
b0110 '
1,
#154
0,
#155
b0111 '
1,
#156
0,
#157
b1000 '
1,
#158
0,
#159
b1001 '
1,
#160
0,
#161
b0000 '
b110 (
b10010100 )
1,
#162
0,
#163
b0001 '
1,
#164
0,
#165
b0010 '
0*
1,
0.
b00000000000000000000000000000110 /
#166
0,
#167
b0011 '
0+
1,
#168
0,
#169
b0100 '
1,
#170
0,
#171
b0101 '
1,
#172
0,
#173
b0110 '
1,
#174
0,
#175
b0111 '
1,
#176
0,
#177
b1000 '
1,
#178
0,
#179
b1001 '
1,
#180
0,
#181
b0000 '
b111 (
b01001010 )
1,
#182
0,
#183
b0001 '
1,
#184
0,
#185
b0010 '
1*
1,
1.
b00000000000000000000000000000111 /
#186
0,
#187
b0011 '
1+
1,
#188
0,
#189
b0100 '
1,
#190
0,
#191
b0101 '
1,
#192
0,
#193
b0110 '
1,
#194
0,
#195
b0111 '
1,
#196
0,
#197
b1000 '
1,
#198
0,
#199
b1001 '
1,
#200
0,
#201
b11 &
b0000 '
b10100101 )
1,
#202
0,
#203
b0001 '
1,
#204
0,
#205
b0010 '
1,
b00000000000000000000000000001000 /
#206
0,
#207
b0011 '
1,
#208
0,
#209
b0100 '
1,
#210
0,
#211
b0101 '
1,
#212
0,
#213
b0110 '
1,
#214
0,
#215
b0111 '
1,
#216
0,
#217
b1000 '
1,
#218
0,
#219
b1001 '
1,
#220
0,
#221
b10100101 #
1$
b00 &
b0000 '
1,
#222
0,
#223
0$
b000 (
1,
