tb_uart_top.vcd
$version Generated by VerilatedVcd $end
$timescale 1ps $end
 $scope module TOP $end
  $scope module tb_uart_top $end
   $var wire 32 8 CLK_FREQ_HZ [31:0] $end
   $var wire 32 9 BAUD_RATE [31:0] $end
   $var wire 32 : DIVISOR [31:0] $end
   $var wire 1 4 clk $end
   $var wire 1 5 rst_n $end
   $var wire 1 6 tx_start $end
   $var wire 8 7 tx_data [7:0] $end
   $var wire 1 # tx_busy $end
   $var wire 1 $ tx_done $end
   $var wire 8 % rx_data [7:0] $end
   $var wire 1 & rx_valid $end
   $var wire 1 ' framing_error $end
   $var wire 1 ( tx_serial $end
   $var wire 1 ( rx_serial $end
   $scope module dut $end
    $var wire 32 8 CLK_FREQ_HZ [31:0] $end
    $var wire 32 9 BAUD_RATE [31:0] $end
    $var wire 1 4 clk $end
    $var wire 1 5 rst_n $end
    $var wire 1 6 tx_start $end
    $var wire 8 7 tx_data [7:0] $end
    $var wire 1 # tx_busy $end
    $var wire 1 $ tx_done $end
    $var wire 1 ( rx_serial $end
    $var wire 8 % rx_data [7:0] $end
    $var wire 1 & rx_valid $end
    $var wire 1 ' framing_error $end
    $var wire 1 ( tx_serial $end
    $scope module u_rx $end
     $var wire 32 8 CLK_FREQ_HZ [31:0] $end
     $var wire 32 9 BAUD_RATE [31:0] $end
     $var wire 1 4 clk $end
     $var wire 1 5 rst_n $end
     $var wire 1 ( rx $end
     $var wire 8 % rx_data [7:0] $end
     $var wire 1 & rx_valid $end
     $var wire 1 ' framing_error $end
     $var wire 32 : DIVISOR [31:0] $end
     $var wire 32 ; CNT_W [31:0] $end
     $var wire 4 < DIVISOR_M1 [3:0] $end
     $var wire 4 = MID_COUNT [3:0] $end
     $var wire 2 ) state [1:0] $end
     $var wire 4 * cnt [3:0] $end
     $var wire 3 + bit_idx [2:0] $end
     $var wire 8 , shreg [7:0] $end
     $var wire 1 - rx_s1 $end
     $var wire 1 . rx_s2 $end
    $upscope $end
    $scope module u_tx $end
     $var wire 32 8 CLK_FREQ_HZ [31:0] $end
     $var wire 32 9 BAUD_RATE [31:0] $end
     $var wire 1 4 clk $end
     $var wire 1 5 rst_n $end
     $var wire 1 6 tx_start $end
     $var wire 8 7 tx_data [7:0] $end
     $var wire 1 ( tx $end
     $var wire 1 # busy $end
     $var wire 1 $ tx_done $end
     $var wire 32 : DIVISOR [31:0] $end
     $var wire 32 ; CNT_W [31:0] $end
     $var wire 4 < DIVISOR_M1 [3:0] $end
     $var wire 3 / state [2:0] $end
     $var wire 4 0 baud_cnt [3:0] $end
     $var wire 1 1 baud_tick $end
     $var wire 3 2 bit_idx [2:0] $end
     $var wire 8 3 shreg [7:0] $end
    $upscope $end
   $upscope $end
  $upscope $end
 $upscope $end
$enddefinitions $end


#0
0#
0$
b00000000 %
0&
0'
0(
b00 )
b0000 *
b000 +
b00000000 ,
0-
0.
b000 /
b0000 0
01
b000 2
b00000000 3
04
05
06
b00000000 7
b00000000000011110100001001000000 8
b00000000000000011000011010100000 9
b00000000000000000000000000001010 :
b00000000000000000000000000000100 ;
b1001 <
b0101 =
#1
1(
1-
1.
14
#2
04
#3
14
#4
04
#5
14
#6
04
#7
14
#8
04
#9
b0001 0
14
15
#10
04
#11
1#
b001 /
b0010 0
b10100101 3
14
16
b10100101 7
#12
04
#13
b0011 0
14
06
#14
04
#15
b0100 0
14
#16
04
#17
b0101 0
14
#18
04
#19
b0110 0
14
#20
04
#21
b0111 0
14
#22
04
#23
b1000 0
14
#24
04
#25
b1001 0
14
#26
04
#27
b0000 0
11
14
#28
04
#29
0(
b010 /
b0001 0
01
14
#30
04
#31
0-
b0010 0
14
#32
04
#33
0.
b0011 0
14
#34
04
#35
b01 )
b0100 0
14
#36
04
#37
b0001 *
b0101 0
14
#38
04
#39
b0010 *
b0110 0
14
#40
04
#41
b0011 *
b0111 0
14
#42
04
#43
b0100 *
b1000 0
14
#44
04
#45
b0101 *
b1001 0
14
#46
04
#47
b10 )
b0000 *
b0000 0
11
14
#48
04
#49
1(
b0001 *
b0001 0
01
b001 2
b01010010 3
14
#50
04
#51
b0010 *
1-
b0010 0
14
#52
04
#53
b0011 *
1.
b0011 0
14
#54
04
#55
b0100 *
b0100 0
14
#56
04
#57
b0101 *
b0101 0
14
#58
04
#59
b0110 *
b0110 0
14
#60
04
#61
b0111 *
b0111 0
14
#62
04
#63
b1000 *
b1000 0
14
#64
04
#65
b1001 *
b1001 0
14
#66
04
#67
b0000 *
b001 +
b10000000 ,
b0000 0
11
14
#68
04
#69
0(
b0001 *
b0001 0
01
b010 2
b00101001 3
14
#70
04
#71
b0010 *
0-
b0010 0
14
#72
04
#73
b0011 *
0.
b0011 0
14
#74
04
#75
b0100 *
b0100 0
14
#76
04
#77
b0101 *
b0101 0
14
#78
04
#79
b0110 *
b0110 0
14
#80
04
#81
b0111 *
b0111 0
14
#82
04
#83
b1000 *
b1000 0
14
#84
04
#85
b1001 *
b1001 0
14
#86
04
#87
b0000 *
b010 +
b01000000 ,
b0000 0
11
14
#88
04
#89
1(
b0001 *
b0001 0
01
b011 2
b00010100 3
14
#90
04
#91
b0010 *
1-
b0010 0
14
#92
04
#93
b0011 *
1.
b0011 0
14
#94
04
#95
b0100 *
b0100 0
14
#96
04
#97
b0101 *
b0101 0
14
#98
04
#99
b0110 *
b0110 0
14
#100
04
#101
b0111 *
b0111 0
14
#102
04
#103
b1000 *
b1000 0
14
#104
04
#105
b1001 *
b1001 0
14
#106
04
#107
b0000 *
b011 +
b10100000 ,
b0000 0
11
14
#108
04
#109
0(
b0001 *
b0001 0
01
b100 2
b00001010 3
14
#110
04
#111
b0010 *
0-
b0010 0
14
#112
04
#113
b0011 *
0.
b0011 0
14
#114
04
#115
b0100 *
b0100 0
14
#116
04
#117
b0101 *
b0101 0
14
#118
04
#119
b0110 *
b0110 0
14
#120
04
#121
b0111 *
b0111 0
14
#122
04
#123
b1000 *
b1000 0
14
#124
04
#125
b1001 *
b1001 0
14
#126
04
#127
b0000 *
b100 +
b01010000 ,
b0000 0
11
14
#128
04
#129
b0001 *
b0001 0
01
b101 2
b00000101 3
14
#130
04
#131
b0010 *
b0010 0
14
#132
04
#133
b0011 *
b0011 0
14
#134
04
#135
b0100 *
b0100 0
14
#136
04
#137
b0101 *
b0101 0
14
#138
04
#139
b0110 *
b0110 0
14
#140
04
#141
b0111 *
b0111 0
14
#142
04
#143
b1000 *
b1000 0
14
#144
04
#145
b1001 *
b1001 0
14
#146
04
#147
b0000 *
b101 +
b00101000 ,
b0000 0
11
14
#148
04
#149
1(
b0001 *
b0001 0
01
b110 2
b00000010 3
14
#150
04
#151
b0010 *
1-
b0010 0
14
#152
04
#153
b0011 *
1.
b0011 0
14
#154
04
#155
b0100 *
b0100 0
14
#156
04
#157
b0101 *
b0101 0
14
#158
04
#159
b0110 *
b0110 0
14
#160
04
#161
b0111 *
b0111 0
14
#162
04
#163
b1000 *
b1000 0
14
#164
04
#165
b1001 *
b1001 0
14
#166
04
#167
b0000 *
b110 +
b10010100 ,
b0000 0
11
14
#168
04
#169
0(
b0001 *
b0001 0
01
b111 2
b00000001 3
14
#170
04
#171
b0010 *
0-
b0010 0
14
#172
04
#173
b0011 *
0.
b0011 0
14
#174
04
#175
b0100 *
b0100 0
14
#176
04
#177
b0101 *
b0101 0
14
#178
04
#179
b0110 *
b0110 0
14
#180
04
#181
b0111 *
b0111 0
14
#182
04
#183
b1000 *
b1000 0
14
#184
04
#185
b1001 *
b1001 0
14
#186
04
#187
b0000 *
b111 +
b01001010 ,
b0000 0
11
14
#188
04
#189
1(
b0001 *
b011 /
b0001 0
01
b00000000 3
14
#190
04
#191
b0010 *
1-
b0010 0
14
#192
04
#193
b0011 *
1.
b0011 0
14
#194
04
#195
b0100 *
b0100 0
14
#196
04
#197
b0101 *
b0101 0
14
#198
04
#199
b0110 *
b0110 0
14
#200
04
#201
b0111 *
b0111 0
14
#202
04
#203
b1000 *
b1000 0
14
#204
04
#205
b1001 *
b1001 0
14
#206
04
#207
b11 )
b0000 *
b10100101 ,
b0000 0
11
14
#208
04
#209
b0001 *
b100 /
b0001 0
01
14
#210
04
#211
1$
b0010 *
b000 /
b0010 0
14
#212
04
#213
0#
0$
b0011 *
b0011 0
14
#214
04
#215
b0100 *
b0100 0
14
#216
04
#217
b0101 *
b0101 0
14
#218
04
#219
b0110 *
b0110 0
14
#220
04
#221
b0111 *
b0111 0
14
#222
04
#223
b1000 *
b1000 0
14
#224
04
#225
b1001 *
b1001 0
14
#226
04
#227
b10100101 %
1&
b00 )
b0000 *
b0000 0
11
14
#228
04
#229
0&
b000 +
b0001 0
01
14
#230
04
#231
b0010 0
14
#232
04
#233
b0011 0
14
#234
04
#235
b0100 0
14
#236
04
#237
b0101 0
14
#238
04
#239
b0110 0
14
#240
04
#241
b0111 0
14
#242
04
#243
b1000 0
14
#244
04
#245
b1001 0
14
#246
04
#247
b0000 0
11
14
#248
04
#249
b0001 0
01
14
#250
04
#251
b0010 0
14
#252
04
#253
b0011 0
14
#254
04
#255
b0100 0
14
#256
04
#257
b0101 0
14
#258
04
#259
b0110 0
14
#260
04
#261
b0111 0
14
#262
04
#263
b1000 0
14
#264
04
#265
b1001 0
14
#266
04
#267
b0000 0
11
14
#268
04
#269
1#
b001 /
b0001 0
01
b00111100 3
14
16
b00111100 7
#270
04
#271
b0010 0
14
06
#272
04
#273
b0011 0
14
#274
04
#275
b0100 0
14
#276
04
#277
b0101 0
14
#278
04
#279
b0110 0
14
#280
04
#281
b0111 0
14
#282
04
#283
b1000 0
14
#284
04
#285
b1001 0
14
#286
04
#287
b0000 0
11
14
#288
04
#289
0(
b010 /
b0001 0
01
b000 2
14
#290
04
#291
0-
b0010 0
14
#292
04
#293
0.
b0011 0
14
#294
04
#295
b01 )
b0100 0
14
#296
04
#297
b0001 *
b0101 0
14
#298
04
#299
b0010 *
b0110 0
14
#300
04
#301
b0011 *
b0111 0
14
#302
04
#303
b0100 *
b1000 0
14
#304
04
#305
b0101 *
b1001 0
14
#306
04
#307
b10 )
b0000 *
b0000 0
11
14
#308
04
#309
b0001 *
b0001 0
01
b001 2
b00011110 3
14
#310
04
#311
b0010 *
b0010 0
14
#312
04
#313
b0011 *
b0011 0
14
#314
04
#315
b0100 *
b0100 0
14
#316
04
#317
b0101 *
b0101 0
14
#318
04
#319
b0110 *
b0110 0
14
#320
04
#321
b0111 *
b0111 0
14
#322
04
#323
b1000 *
b1000 0
14
#324
04
#325
b1001 *
b1001 0
14
#326
04
#327
b0000 *
b001 +
b01010010 ,
b0000 0
11
14
#328
04
#329
b0001 *
b0001 0
01
b010 2
b00001111 3
14
#330
04
#331
b0010 *
b0010 0
14
#332
04
#333
b0011 *
b0011 0
14
#334
04
#335
b0100 *
b0100 0
14
#336
04
#337
b0101 *
b0101 0
14
#338
04
#339
b0110 *
b0110 0
14
#340
04
#341
b0111 *
b0111 0
14
#342
04
#343
b1000 *
b1000 0
14
#344
04
#345
b1001 *
b1001 0
14
#346
04
#347
b0000 *
b010 +
b00101001 ,
b0000 0
11
14
#348
04
#349
1(
b0001 *
b0001 0
01
b011 2
b00000111 3
14
#350
04
#351
b0010 *
1-
b0010 0
14
#352
04
#353
b0011 *
1.
b0011 0
14
#354
04
#355
b0100 *
b0100 0
14
#356
04
#357
b0101 *
b0101 0
14
#358
04
#359
b0110 *
b0110 0
14
#360
04
#361
b0111 *
b0111 0
14
#362
04
#363
b1000 *
b1000 0
14
#364
04
#365
b1001 *
b1001 0
14
#366
04
#367
b0000 *
b011 +
b10010100 ,
b0000 0
11
14
#368
04
#369
b0001 *
b0001 0
01
b100 2
b00000011 3
14
#370
04
#371
b0010 *
b0010 0
14
#372
04
#373
b0011 *
b0011 0
14
#374
04
#375
b0100 *
b0100 0
14
#376
04
#377
b0101 *
b0101 0
14
#378
04
#379
b0110 *
b0110 0
14
#380
04
#381
b0111 *
b0111 0
14
#382
04
#383
b1000 *
b1000 0
14
#384
04
#385
b1001 *
b1001 0
14
#386
04
#387
b0000 *
b100 +
b11001010 ,
b0000 0
11
14
#388
04
#389
b0001 *
b0001 0
01
b101 2
b00000001 3
14
#390
04
#391
b0010 *
b0010 0
14
#392
04
#393
b0011 *
b0011 0
14
#394
04
#395
b0100 *
b0100 0
14
#396
04
#397
b0101 *
b0101 0
14
#398
04
#399
b0110 *
b0110 0
14
#400
04
#401
b0111 *
b0111 0
14
#402
04
#403
b1000 *
b1000 0
14
#404
04
#405
b1001 *
b1001 0
14
#406
04
#407
b0000 *
b101 +
b11100101 ,
b0000 0
11
14
#408
04
#409
b0001 *
b0001 0
01
b110 2
b00000000 3
14
#410
04
#411
b0010 *
b0010 0
14
#412
04
#413
b0011 *
b0011 0
14
#414
04
#415
b0100 *
b0100 0
14
#416
04
#417
b0101 *
b0101 0
14
#418
04
#419
b0110 *
b0110 0
14
#420
04
#421
b0111 *
b0111 0
14
#422
04
#423
b1000 *
b1000 0
14
#424
04
#425
b1001 *
b1001 0
14
#426
04
#427
b0000 *
b110 +
b11110010 ,
b0000 0
11
14
#428
04
#429
0(
b0001 *
b0001 0
01
b111 2
14
#430
04
#431
b0010 *
0-
b0010 0
14
#432
04
#433
b0011 *
0.
b0011 0
14
#434
04
#435
b0100 *
b0100 0
14
#436
04
#437
b0101 *
b0101 0
14
#438
04
#439
b0110 *
b0110 0
14
#440
04
#441
b0111 *
b0111 0
14
#442
04
#443
b1000 *
b1000 0
14
#444
04
#445
b1001 *
b1001 0
14
#446
04
#447
b0000 *
b111 +
b01111001 ,
b0000 0
11
14
#448
04
#449
b0001 *
b011 /
b0001 0
01
14
#450
04
#451
b0010 *
b0010 0
14
#452
04
#453
b0011 *
b0011 0
14
#454
04
#455
b0100 *
b0100 0
14
#456
04
#457
b0101 *
b0101 0
14
#458
04
#459
b0110 *
b0110 0
14
#460
04
#461
b0111 *
b0111 0
14
#462
04
#463
b1000 *
b1000 0
14
#464
04
#465
b1001 *
b1001 0
14
#466
04
#467
b11 )
b0000 *
b00111100 ,
b0000 0
11
14
#468
04
#469
1(
b0001 *
b100 /
b0001 0
01
14
#470
04
#471
1$
b0010 *
1-
b000 /
b0010 0
14
#472
04
#473
0#
0$
b0011 *
1.
b0011 0
14
#474
04
#475
b0100 *
b0100 0
14
#476
04
#477
b0101 *
b0101 0
14
#478
04
#479
b0110 *
b0110 0
14
#480
04
#481
b0111 *
b0111 0
14
#482
04
#483
b1000 *
b1000 0
14
#484
04
#485
b1001 *
b1001 0
14
#486
04
#487
b00111100 %
1&
b00 )
b0000 *
b0000 0
11
14
#488
04
#489
0&
b000 +
b0001 0
01
14
#490
04
#491
b0010 0
14
#492
04
#493
b0011 0
14
#494
04
#495
b0100 0
14
#496
04
#497
b0101 0
14
#498
04
#499
b0110 0
14
#500
04
#501
b0111 0
14
#502
04
#503
b1000 0
14
#504
04
#505
b1001 0
14
#506
04
#507
b0000 0
11
14
#508
04
#509
b0001 0
01
14
#510
04
#511
b0010 0
14
#512
04
#513
b0011 0
14
#514
04
#515
b0100 0
14
#516
04
#517
b0101 0
14
#518
04
#519
b0110 0
14
#520
04
#521
b0111 0
14
#522
04
#523
b1000 0
14
#524
04
#525
b1001 0
14
#526
04
#527
b0000 0
11
14
#528
04
#529
b0001 0
01
14
#530
04
#531
b0010 0
14
#532
04
#533
b0011 0
14
#534
04
#535
b0100 0
14
#536
04
#537
b0101 0
14
#538
04
#539
b0110 0
14
#540
04
#541
b0111 0
14
#542
04
#543
b1000 0
14
#544
04
#545
b1001 0
14
#546
04
#547
b0000 0
11
14
#548
04
#549
b0001 0
01
14
#550
04
#551
b0010 0
14
#552
04
#553
b0011 0
14
#554
04
#555
b0100 0
14
#556
04
#557
b0101 0
14
#558
04
#559
b0110 0
14
#560
04
#561
b0111 0
14
#562
04
#563
b1000 0
14
#564
04
#565
b1001 0
14
#566
04
#567
b0000 0
11
14
