pcie-sg-dma-engine/pcie-sg-dma-engine/sim_results/waveforms/tb_back_to_back.vcd
$version Generated by VerilatedVcd $end
$timescale 1ps $end
 $scope module TOP $end
  $scope module tb_back_to_back $end
   $var wire 32 ` RING_DEPTH [31:0] $end
   $var wire 32 a PTR_WIDTH [31:0] $end
   $var wire 32 b NUM_DESCRIPTORS [31:0] $end
   $var wire 32 c STUB_LATENCY [31:0] $end
   $var wire 1 _ clk $end
   $var wire 1 # rst_n $end
   $var wire 8 $ sw_insert_ptr_wr [7:0] $end
   $var wire 1 % sw_insert_ptr_wr_en $end
   $var wire 8 + insert_ptr [7:0] $end
   $var wire 8 , extract_ptr [7:0] $end
   $var wire 1 - extract_ptr_update $end
   $var wire 1 . extract_valid_req $end
   $var wire 1 / extract_valid $end
   $var wire 1 0 ring_empty $end
   $var wire 1 1 ring_full $end
   $var wire 1 2 desc_rd_req $end
   $var wire 64 3 desc_rd_addr [63:0] $end
   $var wire 1 5 desc_rd_valid $end
   $var wire 256 6 desc_rd_data [255:0] $end
   $var wire 64 > desc_src_addr [63:0] $end
   $var wire 64 @ desc_dst_addr [63:0] $end
   $var wire 32 B desc_len [31:0] $end
   $var wire 1 C desc_dir $end
   $var wire 1 D desc_irq_en $end
   $var wire 1 E decode_error $end
   $var wire 1 F dispatch_valid $end
   $var wire 1 G dispatch_ack $end
   $var wire 1 H xfer_done $end
   $var wire 1 d xfer_error $end
   $var wire 1 I writeback_req $end
   $var wire 1 J writeback_done $end
   $var wire 4 K state_dbg [3:0] $end
   $var wire 32 & pass_count [31:0] $end
   $var wire 32 ' fail_count [31:0] $end
   $var wire 1 L wb_wr_req_out $end
   $var wire 1 M wb_wr_ack_r $end
   $var wire 2 N rd_delay [1:0] $end
   $scope module u_completion $end
    $var wire 32 e WB_INTR_TIMEOUT [31:0] $end
    $var wire 1 _ clk $end
    $var wire 1 # rst_n $end
    $var wire 1 I writeback_req $end
    $var wire 1 E decode_error $end
    $var wire 1 d xfer_error $end
    $var wire 1 J writeback_done $end
    $var wire 64 f wb_target_addr [63:0] $end
    $var wire 1 L wb_wr_req $end
    $var wire 64 O wb_wr_addr [63:0] $end
    $var wire 32 Q wb_wr_data [31:0] $end
    $var wire 1 M wb_wr_ack $end
    $var wire 16 R pending_completions [15:0] $end
    $var wire 1 d msix_fire $end
    $var wire 1 J wb_event_pulse $end
    $var wire 32 e wb_intr_timeout_cfg [31:0] $end
    $var wire 2 S wb_state [1:0] $end
    $var wire 32 Q status_word [31:0] $end
    $var wire 16 R pending_r [15:0] $end
    $var wire 64 O wb_addr_r [63:0] $end
   $upscope $end
   $scope module u_fetch $end
    $var wire 32 ` RING_DEPTH [31:0] $end
    $var wire 32 a PTR_WIDTH [31:0] $end
    $var wire 32 h MAX_XFER_LEN [31:0] $end
    $var wire 1 _ clk $end
    $var wire 1 # rst_n $end
    $var wire 64 i desc_base_addr [63:0] $end
    $var wire 1 / extract_valid $end
    $var wire 8 , extract_ptr [7:0] $end
    $var wire 1 - extract_ptr_update $end
    $var wire 1 . extract_valid_req $end
    $var wire 1 2 desc_rd_req $end
    $var wire 64 3 desc_rd_addr [63:0] $end
    $var wire 1 5 desc_rd_valid $end
    $var wire 256 6 desc_rd_data [255:0] $end
    $var wire 64 > desc_src_addr [63:0] $end
    $var wire 64 @ desc_dst_addr [63:0] $end
    $var wire 32 B desc_len [31:0] $end
    $var wire 1 C desc_dir $end
    $var wire 1 D desc_irq_en $end
    $var wire 1 E decode_error $end
    $var wire 1 F dispatch_valid $end
    $var wire 1 G dispatch_ack $end
    $var wire 1 H xfer_done $end
    $var wire 1 d xfer_error $end
    $var wire 1 I writeback_req $end
    $var wire 1 J writeback_done $end
    $var wire 4 K state_dbg [3:0] $end
    $var wire 4 K state [3:0] $end
    $var wire 4 T state_n [3:0] $end
    $var wire 256 U desc_raw [255:0] $end
   $upscope $end
   $scope module u_ring $end
    $var wire 32 ` RING_DEPTH [31:0] $end
    $var wire 32 a PTR_WIDTH [31:0] $end
    $var wire 1 _ clk $end
    $var wire 1 # rst_n $end
    $var wire 8 $ sw_insert_ptr_wr [7:0] $end
    $var wire 1 % sw_insert_ptr_wr_en $end
    $var wire 8 , hw_extract_ptr_rd [7:0] $end
    $var wire 8 + insert_ptr [7:0] $end
    $var wire 8 , extract_ptr [7:0] $end
    $var wire 1 - extract_ptr_update $end
    $var wire 1 . extract_valid_req $end
    $var wire 1 0 ring_empty $end
    $var wire 1 1 ring_full $end
    $var wire 1 / extract_valid $end
    $var wire 1 % insert_ptr_update_dbg $end
    $var wire 1 - extract_ptr_update_dbg $end
    $var wire 8 + insert_ptr_r [7:0] $end
    $var wire 8 , extract_ptr_r [7:0] $end
   $upscope $end
   $scope module u_stub $end
    $var wire 32 c LATENCY_CYCLES [31:0] $end
    $var wire 1 _ clk $end
    $var wire 1 # rst_n $end
    $var wire 1 F dispatch_valid $end
    $var wire 1 G dispatch_ack $end
    $var wire 1 H xfer_done $end
    $var wire 1 d xfer_error $end
    $var wire 2 ] state [1:0] $end
    $var wire 32 ^ wait_count [31:0] $end
   $upscope $end
   $scope module unnamedblk1 $end
    $var wire 32 ( i [31:0] $end
   $upscope $end
   $scope module unnamedblk2 $end
    $var wire 32 ) timeout [31:0] $end
    $var wire 32 * cnt [31:0] $end
   $upscope $end
  $upscope $end
 $upscope $end
$enddefinitions $end


#0
0#
b00000000 $
0%
b00000000000000000000000000000000 &
b00000000000000000000000000000000 '
b00000000000000000000000000000000 (
b00000000000000000000000000000000 )
b00000000000000000000000000000000 *
b00000000 +
b00000000 ,
0-
1.
0/
10
01
02
b0000000000000000000000000000000000000000000000000001000000000000 3
05
b0000000000000000000000000000000000000000000000000000000000000000000000000000000000000000000000000000000000000000000000000000000000000000000000000000000000000000000000000000000000000000000000000000000000000000000000000000000000000000000000000000000000000000 6
b0000000000000000000000000000000000000000000000000000000000000000 >
b0000000000000000000000000000000000000000000000000000000000000000 @
b00000000000000000000000000000000 B
0C
0D
0E
0F
0G
0H
0I
0J
b0000 K
0L
0M
b00 N
b0000000000000000000000000000000000000000000000000000000000000000 O
b00000000000000000000000000000001 Q
b0000000000000000 R
b00 S
b0000 T
b0000000000000000000000000000000000000000000000000000000000000000000000000000000000000000000000000000000000000000000000000000000000000000000000000000000000000000000000000000000000000000000000000000000000000000000000000000000000000000000000000000000000000000 U
b00 ]
b00000000000000000000000000000000 ^
0_
b00000000000000000000000010000000 `
b00000000000000000000000000001000 a
b00000000000000000000000000001010 b
b00000000000000000000000000000011 c
0d
b00000000000000000000000100000000 e
b0000000000000000000000000000000011011110101011010000000000000000 f
b00000100000000000000000000000000 h
b0000000000000000000000000000000000000000000000000001000000000000 i
#5000
1_
#10000
0_
#15000
1_
#20000
0_
#25000
1_
#30000
0_
#35000
1_
#40000
0_
#45000
1#
1_
#50000
0_
#55000
1_
#60000
0_
#65000
b00000001 $
1%
b00000001 +
1/
00
b0001 T
1_
#70000
0_
#75000
0%
b00000000000000000000000000000001 (
0.
0/
12
b0001 K
b0010 T
1_
#80000
0_
#85000
b00000010 $
1%
b00000010 +
02
b0010 K
b10 N
1_
#90000
0_
#95000
0%
b00000000000000000000000000000010 (
b01 N
1_
#100000
0_
#105000
b00000011 $
1%
b00000011 +
15
b0000000000000000000000000000000000000000000000000000000000000000000000000000000000000000000000010000000000000000000000010000000000000000000000000000000000000000101110111011101100000000000000000000000000000000000000000000000010101010101010100000000000000000 6
b00 N
b0011 T
1_
#110000
0_
#115000
0%
b00000000000000000000000000000011 (
05
b0011 K
b0100 T
b0000000000000000000000000000000000000000000000000000000000000000000000000000000000000000000000010000000000000000000000010000000000000000000000000000000000000000101110111011101100000000000000000000000000000000000000000000000010101010101010100000000000000000 U
1_
#120000
0_
#125000
b00000100 $
1%
b00000100 +
b0000000000000000000000000000000010101010101010100000000000000000 >
b0000000000000000000000000000000010111011101110110000000000000000 @
b00000000000000000000000100000000 B
1C
1F
b0100 K
1_
#130000
0_
#135000
0%
b00000000000000000000000000000100 (
1G
b0101 T
b01 ]
1_
#140000
0_
#145000
b00000101 $
1%
b00000101 +
0F
0G
b0101 K
b10 ]
1_
#150000
0_
#155000
0%
b00000000000000000000000000000101 (
b00000000000000000000000000000001 ^
1_
#160000
0_
#165000
b00000110 $
1%
b00000110 +
b00000000000000000000000000000010 ^
1_
#170000
0_
#175000
0%
b00000000000000000000000000000110 (
1H
b0110 T
b11 ]
1_
#180000
0_
#185000
b00000111 $
1%
b00000111 +
0H
1I
b0110 K
b0111 T
b00 ]
1_
#190000
0_
#195000
0%
b00000000000000000000000000000111 (
0I
b0111 K
1L
b0000000000000000000000000000000011011110101011010000000000000000 O
b01 S
b00000000000000000000000000000000 ^
1_
#200000
0_
#205000
b00001000 $
1%
b00001000 +
1J
0L
1M
b10 S
b1000 T
1_
#210000
0_
#215000
0%
b00000000000000000000000000001000 (
1-
1.
1/
0J
b1000 K
0M
b0000000000000001 R
b00 S
b0000 T
1_
#220000
0_
#225000
b00001001 $
1%
b00001001 +
b00000001 ,
0-
b0000000000000000000000000000000000000000000000000001000000100000 3
b0000 K
b0001 T
1_
#230000
0_
#235000
0%
b00000000000000000000000000001001 (
0.
0/
12
b0001 K
b0010 T
1_
#240000
0_
#245000
b00001010 $
1%
b00001010 +
02
b0010 K
b10 N
1_
#250000
0_
#255000
0%
b00000000000000000000000000001010 (
b00000000000000000000001010111100 )
b01 N
1_
#260000
0_
#265000
b00000000000000000000000000000001 *
15
b00 N
b0011 T
1_
#270000
0_
#275000
b00000000000000000000000000000010 *
05
b0011 K
b0100 T
1_
#280000
0_
#285000
b00000000000000000000000000000011 *
1F
b0100 K
1_
#290000
0_
#295000
b00000000000000000000000000000100 *
1G
b0101 T
b01 ]
1_
#300000
0_
#305000
b00000000000000000000000000000101 *
0F
0G
b0101 K
b10 ]
1_
#310000
0_
#315000
b00000000000000000000000000000110 *
b00000000000000000000000000000001 ^
1_
#320000
0_
#325000
b00000000000000000000000000000111 *
b00000000000000000000000000000010 ^
1_
#330000
0_
#335000
b00000000000000000000000000001000 *
1H
b0110 T
b11 ]
1_
#340000
0_
#345000
b00000000000000000000000000001001 *
0H
1I
b0110 K
b0111 T
b00 ]
1_
#350000
0_
#355000
b00000000000000000000000000001010 *
0I
b0111 K
1L
b01 S
b00000000000000000000000000000000 ^
1_
#360000
0_
#365000
b00000000000000000000000000001011 *
1J
0L
1M
b10 S
b1000 T
1_
#370000
0_
#375000
b00000000000000000000000000001100 *
1-
1.
1/
0J
b1000 K
0M
b0000000000000010 R
b00 S
b0000 T
1_
#380000
0_
#385000
b00000000000000000000000000001101 *
b00000010 ,
0-
b0000000000000000000000000000000000000000000000000001000001000000 3
b0000 K
b0001 T
1_
#390000
0_
#395000
b00000000000000000000000000001110 *
0.
0/
12
b0001 K
b0010 T
1_
#400000
0_
#405000
b00000000000000000000000000001111 *
02
b0010 K
b10 N
1_
#410000
0_
#415000
b00000000000000000000000000010000 *
b01 N
1_
#420000
0_
#425000
b00000000000000000000000000010001 *
15
b00 N
b0011 T
1_
#430000
0_
#435000
b00000000000000000000000000010010 *
05
b0011 K
b0100 T
1_
#440000
0_
#445000
b00000000000000000000000000010011 *
1F
b0100 K
1_
#450000
0_
#455000
b00000000000000000000000000010100 *
1G
b0101 T
b01 ]
1_
#460000
0_
#465000
b00000000000000000000000000010101 *
0F
0G
b0101 K
b10 ]
1_
#470000
0_
#475000
b00000000000000000000000000010110 *
b00000000000000000000000000000001 ^
1_
#480000
0_
#485000
b00000000000000000000000000010111 *
b00000000000000000000000000000010 ^
1_
#490000
0_
#495000
b00000000000000000000000000011000 *
1H
b0110 T
b11 ]
1_
#500000
0_
#505000
b00000000000000000000000000011001 *
0H
1I
b0110 K
b0111 T
b00 ]
1_
#510000
0_
#515000
b00000000000000000000000000011010 *
0I
b0111 K
1L
b01 S
b00000000000000000000000000000000 ^
1_
#520000
0_
#525000
b00000000000000000000000000011011 *
1J
0L
1M
b10 S
b1000 T
1_
#530000
0_
#535000
b00000000000000000000000000011100 *
1-
1.
1/
0J
b1000 K
0M
b0000000000000011 R
b00 S
b0000 T
1_
#540000
0_
#545000
b00000000000000000000000000011101 *
b00000011 ,
0-
b0000000000000000000000000000000000000000000000000001000001100000 3
b0000 K
b0001 T
1_
#550000
0_
#555000
b00000000000000000000000000011110 *
0.
0/
12
b0001 K
b0010 T
1_
#560000
0_
#565000
b00000000000000000000000000011111 *
02
b0010 K
b10 N
1_
#570000
0_
#575000
b00000000000000000000000000100000 *
b01 N
1_
#580000
0_
#585000
b00000000000000000000000000100001 *
15
b00 N
b0011 T
1_
#590000
0_
#595000
b00000000000000000000000000100010 *
05
b0011 K
b0100 T
1_
#600000
0_
#605000
b00000000000000000000000000100011 *
1F
b0100 K
1_
#610000
0_
#615000
b00000000000000000000000000100100 *
1G
b0101 T
b01 ]
1_
#620000
0_
#625000
b00000000000000000000000000100101 *
0F
0G
b0101 K
b10 ]
1_
#630000
0_
#635000
b00000000000000000000000000100110 *
b00000000000000000000000000000001 ^
1_
#640000
0_
#645000
b00000000000000000000000000100111 *
b00000000000000000000000000000010 ^
1_
#650000
0_
#655000
b00000000000000000000000000101000 *
1H
b0110 T
b11 ]
1_
#660000
0_
#665000
b00000000000000000000000000101001 *
0H
1I
b0110 K
b0111 T
b00 ]
1_
#670000
0_
#675000
b00000000000000000000000000101010 *
0I
b0111 K
1L
b01 S
b00000000000000000000000000000000 ^
1_
#680000
0_
#685000
b00000000000000000000000000101011 *
1J
0L
1M
b10 S
b1000 T
1_
#690000
0_
#695000
b00000000000000000000000000101100 *
1-
1.
1/
0J
b1000 K
0M
b0000000000000100 R
b00 S
b0000 T
1_
#700000
0_
#705000
b00000000000000000000000000101101 *
b00000100 ,
0-
b0000000000000000000000000000000000000000000000000001000010000000 3
b0000 K
b0001 T
1_
#710000
0_
#715000
b00000000000000000000000000101110 *
0.
0/
12
b0001 K
b0010 T
1_
#720000
0_
#725000
b00000000000000000000000000101111 *
02
b0010 K
b10 N
1_
#730000
0_
#735000
b00000000000000000000000000110000 *
b01 N
1_
#740000
0_
#745000
b00000000000000000000000000110001 *
15
b00 N
b0011 T
1_
#750000
0_
#755000
b00000000000000000000000000110010 *
05
b0011 K
b0100 T
1_
#760000
0_
#765000
b00000000000000000000000000110011 *
1F
b0100 K
1_
#770000
0_
#775000
b00000000000000000000000000110100 *
1G
b0101 T
b01 ]
1_
#780000
0_
#785000
b00000000000000000000000000110101 *
0F
0G
b0101 K
b10 ]
1_
#790000
0_
#795000
b00000000000000000000000000110110 *
b00000000000000000000000000000001 ^
1_
#800000
0_
#805000
b00000000000000000000000000110111 *
b00000000000000000000000000000010 ^
1_
#810000
0_
#815000
b00000000000000000000000000111000 *
1H
b0110 T
b11 ]
1_
#820000
0_
#825000
b00000000000000000000000000111001 *
0H
1I
b0110 K
b0111 T
b00 ]
1_
#830000
0_
#835000
b00000000000000000000000000111010 *
0I
b0111 K
1L
b01 S
b00000000000000000000000000000000 ^
1_
#840000
0_
#845000
b00000000000000000000000000111011 *
1J
0L
1M
b10 S
b1000 T
1_
#850000
0_
#855000
b00000000000000000000000000111100 *
1-
1.
1/
0J
b1000 K
0M
b0000000000000101 R
b00 S
b0000 T
1_
#860000
0_
#865000
b00000000000000000000000000111101 *
b00000101 ,
0-
b0000000000000000000000000000000000000000000000000001000010100000 3
b0000 K
b0001 T
1_
#870000
0_
#875000
b00000000000000000000000000111110 *
0.
0/
12
b0001 K
b0010 T
1_
#880000
0_
#885000
b00000000000000000000000000111111 *
02
b0010 K
b10 N
1_
#890000
0_
#895000
b00000000000000000000000001000000 *
b01 N
1_
#900000
0_
#905000
b00000000000000000000000001000001 *
15
b00 N
b0011 T
1_
#910000
0_
#915000
b00000000000000000000000001000010 *
05
b0011 K
b0100 T
1_
#920000
0_
#925000
b00000000000000000000000001000011 *
1F
b0100 K
1_
#930000
0_
#935000
b00000000000000000000000001000100 *
1G
b0101 T
b01 ]
1_
#940000
0_
#945000
b00000000000000000000000001000101 *
0F
0G
b0101 K
b10 ]
1_
#950000
0_
#955000
b00000000000000000000000001000110 *
b00000000000000000000000000000001 ^
1_
#960000
0_
#965000
b00000000000000000000000001000111 *
b00000000000000000000000000000010 ^
1_
#970000
0_
#975000
b00000000000000000000000001001000 *
1H
b0110 T
b11 ]
1_
#980000
0_
#985000
b00000000000000000000000001001001 *
0H
1I
b0110 K
b0111 T
b00 ]
1_
#990000
0_
#995000
b00000000000000000000000001001010 *
0I
b0111 K
1L
b01 S
b00000000000000000000000000000000 ^
1_
#1000000
0_
#1005000
b00000000000000000000000001001011 *
1J
0L
1M
b10 S
b1000 T
1_
#1010000
0_
#1015000
b00000000000000000000000001001100 *
1-
1.
1/
0J
b1000 K
0M
b0000000000000110 R
b00 S
b0000 T
1_
#1020000
0_
#1025000
b00000000000000000000000001001101 *
b00000110 ,
0-
b0000000000000000000000000000000000000000000000000001000011000000 3
b0000 K
b0001 T
1_
#1030000
0_
#1035000
b00000000000000000000000001001110 *
0.
0/
12
b0001 K
b0010 T
1_
#1040000
0_
#1045000
b00000000000000000000000001001111 *
02
b0010 K
b10 N
1_
#1050000
0_
#1055000
b00000000000000000000000001010000 *
b01 N
1_
#1060000
0_
#1065000
b00000000000000000000000001010001 *
15
b00 N
b0011 T
1_
#1070000
0_
#1075000
b00000000000000000000000001010010 *
05
b0011 K
b0100 T
1_
#1080000
0_
#1085000
b00000000000000000000000001010011 *
1F
b0100 K
1_
#1090000
0_
#1095000
b00000000000000000000000001010100 *
1G
b0101 T
b01 ]
1_
#1100000
0_
#1105000
b00000000000000000000000001010101 *
0F
0G
b0101 K
b10 ]
1_
#1110000
0_
#1115000
b00000000000000000000000001010110 *
b00000000000000000000000000000001 ^
1_
#1120000
0_
#1125000
b00000000000000000000000001010111 *
b00000000000000000000000000000010 ^
1_
#1130000
0_
#1135000
b00000000000000000000000001011000 *
1H
b0110 T
b11 ]
1_
#1140000
0_
#1145000
b00000000000000000000000001011001 *
0H
1I
b0110 K
b0111 T
b00 ]
1_
#1150000
0_
#1155000
b00000000000000000000000001011010 *
0I
b0111 K
1L
b01 S
b00000000000000000000000000000000 ^
1_
#1160000
0_
#1165000
b00000000000000000000000001011011 *
1J
0L
1M
b10 S
b1000 T
1_
#1170000
0_
#1175000
b00000000000000000000000001011100 *
1-
1.
1/
0J
b1000 K
0M
b0000000000000111 R
b00 S
b0000 T
1_
#1180000
0_
#1185000
b00000000000000000000000001011101 *
b00000111 ,
0-
b0000000000000000000000000000000000000000000000000001000011100000 3
b0000 K
b0001 T
1_
#1190000
0_
#1195000
b00000000000000000000000001011110 *
0.
0/
12
b0001 K
b0010 T
1_
#1200000
0_
#1205000
b00000000000000000000000001011111 *
02
b0010 K
b10 N
1_
#1210000
0_
#1215000
b00000000000000000000000001100000 *
b01 N
1_
#1220000
0_
#1225000
b00000000000000000000000001100001 *
15
b00 N
b0011 T
1_
#1230000
0_
#1235000
b00000000000000000000000001100010 *
05
b0011 K
b0100 T
1_
#1240000
0_
#1245000
b00000000000000000000000001100011 *
1F
b0100 K
1_
#1250000
0_
#1255000
b00000000000000000000000001100100 *
1G
b0101 T
b01 ]
1_
#1260000
0_
#1265000
b00000000000000000000000001100101 *
0F
0G
b0101 K
b10 ]
1_
#1270000
0_
#1275000
b00000000000000000000000001100110 *
b00000000000000000000000000000001 ^
1_
#1280000
0_
#1285000
b00000000000000000000000001100111 *
b00000000000000000000000000000010 ^
1_
#1290000
0_
#1295000
b00000000000000000000000001101000 *
1H
b0110 T
b11 ]
1_
#1300000
0_
#1305000
b00000000000000000000000001101001 *
0H
1I
b0110 K
b0111 T
b00 ]
1_
#1310000
0_
#1315000
b00000000000000000000000001101010 *
0I
b0111 K
1L
b01 S
b00000000000000000000000000000000 ^
1_
#1320000
0_
#1325000
b00000000000000000000000001101011 *
1J
0L
1M
b10 S
b1000 T
1_
#1330000
0_
#1335000
b00000000000000000000000001101100 *
1-
1.
1/
0J
b1000 K
0M
b0000000000001000 R
b00 S
b0000 T
1_
#1340000
0_
#1345000
b00000000000000000000000001101101 *
b00001000 ,
0-
b0000000000000000000000000000000000000000000000000001000100000000 3
b0000 K
b0001 T
1_
#1350000
0_
#1355000
b00000000000000000000000001101110 *
0.
0/
12
b0001 K
b0010 T
1_
#1360000
0_
#1365000
b00000000000000000000000001101111 *
02
b0010 K
b10 N
1_
#1370000
0_
#1375000
b00000000000000000000000001110000 *
b01 N
1_
#1380000
0_
#1385000
b00000000000000000000000001110001 *
15
b00 N
b0011 T
1_
#1390000
0_
#1395000
b00000000000000000000000001110010 *
05
b0011 K
b0100 T
1_
#1400000
0_
#1405000
b00000000000000000000000001110011 *
1F
b0100 K
1_
#1410000
0_
#1415000
b00000000000000000000000001110100 *
1G
b0101 T
b01 ]
1_
#1420000
0_
#1425000
b00000000000000000000000001110101 *
0F
0G
b0101 K
b10 ]
1_
#1430000
0_
#1435000
b00000000000000000000000001110110 *
b00000000000000000000000000000001 ^
1_
#1440000
0_
#1445000
b00000000000000000000000001110111 *
b00000000000000000000000000000010 ^
1_
#1450000
0_
#1455000
b00000000000000000000000001111000 *
1H
b0110 T
b11 ]
1_
#1460000
0_
#1465000
b00000000000000000000000001111001 *
0H
1I
b0110 K
b0111 T
b00 ]
1_
#1470000
0_
#1475000
b00000000000000000000000001111010 *
0I
b0111 K
1L
b01 S
b00000000000000000000000000000000 ^
1_
#1480000
0_
#1485000
b00000000000000000000000001111011 *
1J
0L
1M
b10 S
b1000 T
1_
#1490000
0_
#1495000
b00000000000000000000000001111100 *
1-
1.
1/
0J
b1000 K
0M
b0000000000001001 R
b00 S
b0000 T
1_
#1500000
0_
#1505000
b00000000000000000000000001111101 *
b00001001 ,
0-
b0000000000000000000000000000000000000000000000000001000100100000 3
b0000 K
b0001 T
1_
#1510000
0_
#1515000
b00000000000000000000000001111110 *
0.
0/
12
b0001 K
b0010 T
1_
#1520000
0_
#1525000
b00000000000000000000000001111111 *
02
b0010 K
b10 N
1_
#1530000
0_
#1535000
b00000000000000000000000010000000 *
b01 N
1_
#1540000
0_
#1545000
b00000000000000000000000010000001 *
15
b00 N
b0011 T
1_
#1550000
0_
#1555000
b00000000000000000000000010000010 *
05
b0011 K
b0100 T
1_
#1560000
0_
#1565000
b00000000000000000000000010000011 *
1F
b0100 K
1_
#1570000
0_
#1575000
b00000000000000000000000010000100 *
1G
b0101 T
b01 ]
1_
#1580000
0_
#1585000
b00000000000000000000000010000101 *
0F
0G
b0101 K
b10 ]
1_
#1590000
0_
#1595000
b00000000000000000000000010000110 *
b00000000000000000000000000000001 ^
1_
#1600000
0_
#1605000
b00000000000000000000000010000111 *
b00000000000000000000000000000010 ^
1_
#1610000
0_
#1615000
b00000000000000000000000010001000 *
1H
b0110 T
b11 ]
1_
#1620000
0_
#1625000
b00000000000000000000000010001001 *
0H
1I
b0110 K
b0111 T
b00 ]
1_
#1630000
0_
#1635000
b00000000000000000000000010001010 *
0I
b0111 K
1L
b01 S
b00000000000000000000000000000000 ^
1_
#1640000
0_
#1645000
b00000000000000000000000010001011 *
1J
0L
1M
b10 S
b1000 T
1_
#1650000
0_
#1655000
b00000000000000000000000010001100 *
1-
1.
1/
0J
b1000 K
0M
b0000000000001010 R
b00 S
b0000 T
1_
#1660000
0_
#1665000
b00000000000000000000000010001101 *
b00001010 ,
0-
0/
10
b0000000000000000000000000000000000000000000000000001000101000000 3
b0000 K
1_
#1670000
0_
#1675000
b00000000000000000000000000000011 &
b00000000000000000000000010001110 *
1_
