pcie-sg-dma-engine/pcie-sg-dma-engine/sim_results/waveforms/tb_c2h_single.vcd
$version Generated by VerilatedVcd $end
$timescale 1ps $end
 $scope module TOP $end
  $scope module tb_c2h_single $end
   $var wire 32 \ AXIS_WIDTH [31:0] $end
   $var wire 32 ] MPS_BYTES [31:0] $end
   $var wire 1 W clk $end
   $var wire 1 # rst_n $end
   $var wire 32 $ pass_count [31:0] $end
   $var wire 32 % fail_count [31:0] $end
   $var wire 1 & dispatch_valid $end
   $var wire 1 > dispatch_ack $end
   $var wire 1 ? xfer_done $end
   $var wire 1 ^ xfer_error $end
   $var wire 64 ' dst_addr [63:0] $end
   $var wire 32 ) xfer_len [31:0] $end
   $var wire 256 * s_axis_tdata [255:0] $end
   $var wire 1 2 s_axis_tvalid $end
   $var wire 1 3 s_axis_tlast $end
   $var wire 1 @ s_axis_tready $end
   $var wire 1 A tlp_req_valid $end
   $var wire 1 X tlp_req_ack $end
   $var wire 3 _ tlp_req_type [2:0] $end
   $var wire 64 B tlp_req_addr [63:0] $end
   $var wire 32 D tlp_req_len [31:0] $end
   $var wire 10 ` tlp_req_tag [9:0] $end
   $var wire 256 * tlp_payload_tdata [255:0] $end
   $var wire 1 4 tlp_payload_tvalid $end
   $var wire 1 E tlp_payload_tready $end
   $var wire 1 5 tlp_payload_tlast $end
   $var wire 256 6 m_axis_tdata [255:0] $end
   $var wire 1 Y m_axis_tvalid $end
   $var wire 1 Z m_axis_tlast $end
   $var wire 1 a m_axis_tready $end
   $var wire 32 [ tlp_beat_count [31:0] $end
   $scope module u_c2h $end
    $var wire 32 \ AXIS_WIDTH [31:0] $end
    $var wire 32 ] MPS_BYTES [31:0] $end
    $var wire 1 W clk $end
    $var wire 1 # rst_n $end
    $var wire 1 & dispatch_valid $end
    $var wire 64 ' dst_addr [63:0] $end
    $var wire 32 ) xfer_len [31:0] $end
    $var wire 1 > dispatch_ack $end
    $var wire 1 ? xfer_done $end
    $var wire 1 ^ xfer_error $end
    $var wire 256 * s_axis_tdata [255:0] $end
    $var wire 1 2 s_axis_tvalid $end
    $var wire 1 3 s_axis_tlast $end
    $var wire 1 @ s_axis_tready $end
    $var wire 1 A tlp_req_valid $end
    $var wire 3 _ tlp_req_type [2:0] $end
    $var wire 64 B tlp_req_addr [63:0] $end
    $var wire 32 D tlp_req_len [31:0] $end
    $var wire 10 ` tlp_req_tag [9:0] $end
    $var wire 1 A tlp_req_grant $end
    $var wire 1 X tlp_req_ack $end
    $var wire 256 * tlp_payload_tdata [255:0] $end
    $var wire 1 4 tlp_payload_tvalid $end
    $var wire 1 E tlp_payload_tready $end
    $var wire 1 5 tlp_payload_tlast $end
    $var wire 32 b BYTES_PER_BEAT [31:0] $end
    $var wire 3 F state [2:0] $end
    $var wire 32 G bytes_remaining [31:0] $end
    $var wire 32 H chunk_bytes_remaining [31:0] $end
    $var wire 64 B cur_dst_addr [63:0] $end
    $var wire 32 D chunk_len [31:0] $end
   $upscope $end
   $scope module u_tlp_gen $end
    $var wire 32 \ AXIS_WIDTH [31:0] $end
    $var wire 1 W clk $end
    $var wire 1 # rst_n $end
    $var wire 1 A req_valid $end
    $var wire 3 _ req_type [2:0] $end
    $var wire 64 B req_addr [63:0] $end
    $var wire 32 D req_length_bytes [31:0] $end
    $var wire 10 ` req_tag [9:0] $end
    $var wire 1 X req_ack $end
    $var wire 256 * payload_tdata [255:0] $end
    $var wire 1 4 payload_tvalid $end
    $var wire 1 E payload_tready $end
    $var wire 1 5 payload_tlast $end
    $var wire 1 a posted_hdr_credit_avail $end
    $var wire 1 a posted_data_credit_avail $end
    $var wire 1 a nonposted_hdr_credit_avail $end
    $var wire 256 6 m_axis_tdata [255:0] $end
    $var wire 1 Y m_axis_tvalid $end
    $var wire 1 Z m_axis_tlast $end
    $var wire 1 a m_axis_tready $end
    $var wire 2 I state [1:0] $end
    $var wire 3 J req_type_r [2:0] $end
    $var wire 64 K req_addr_r [63:0] $end
    $var wire 32 M req_length_bytes_r [31:0] $end
    $var wire 10 N req_tag_r [9:0] $end
    $var wire 32 O hdr_dw0 [31:0] $end
    $var wire 32 P hdr_dw1 [31:0] $end
    $var wire 32 Q hdr_dw2 [31:0] $end
    $var wire 32 R hdr_dw3 [31:0] $end
    $var wire 1 S is_write $end
    $var wire 1 T use_4dw $end
    $var wire 10 U length_dw [9:0] $end
    $var wire 1 V credit_ok $end
   $upscope $end
  $upscope $end
 $upscope $end
$enddefinitions $end


#0
0#
b00000000000000000000000000000000 $
b00000000000000000000000000000000 %
0&
b0000000000000000000000000000000000000000000000000000000000000000 '
b00000000000000000000000000000000 )
b0000000000000000000000000000000000000000000000000000000000000000000000000000000000000000000000000000000000000000000000000000000000000000000000000000000000000000000000000000000000000000000000000000000000000000000000000000000000000000000000000000000000000000 *
02
03
04
05
b0000000000000000000000000000000000000000000000000000000000000000000000000000000000000000000000000000000000000000000000000000000000000000000000000000000000000000000000000000000000000000000000000000000000000000000000000000000000000000000000000000000000000000 6
0>
0?
0@
0A
b0000000000000000000000000000000000000000000000000000000000000000 B
b00000000000000000000000000000000 D
0E
b000 F
b00000000000000000000000000000000 G
b00000000000000000000000000000000 H
b00 I
b000 J
b0000000000000000000000000000000000000000000000000000000000000000 K
b00000000000000000000000000000000 M
b0000000000 N
b00000000000000000000000000000000 O
b00000001000000000000000011111111 P
b00000000000000000000000000000000 Q
b00000000000000000000000000000000 R
0S
0T
b0000000000 U
1V
0W
0X
0Y
0Z
b00000000000000000000000000000000 [
b00000000000000000000000100000000 \
b00000000000000000000000001000000 ]
0^
b001 _
b0000000000 `
1a
b00000000000000000000000000100000 b
#5000
1W
#10000
0W
#15000
1W
#20000
0W
#25000
1W
#30000
0W
#35000
1W
#40000
0W
#45000
1#
1W
#50000
0W
#55000
1&
b0000000000000000110111101010110110111110111011110000000000000000 '
b00000000000000000000000000100000 )
1>
b001 F
1W
#60000
0W
#65000
0&
b1100101011111110101110101011111000010010001101000101011001111000101010101010101010111011101110111100110011001100110111011101110100010001000100010010001000100010001100110011001101000100010001000101010101010101011001100110011001110111011101111000100010001000 *
12
13
0>
1A
b0000000000000000110111101010110110111110111011110000000000000000 B
b00000000000000000000000000100000 D
b010 F
b00000000000000000000000000100000 G
1W
#70000
0W
#75000
14
15
0A
b011 F
b00000000000000000000000000100000 H
b01 I
b001 J
b0000000000000000110111101010110110111110111011110000000000000000 K
b00000000000000000000000000100000 M
b01100000000000000000000000001000 O
b00000000000000001101111010101101 Q
b10111110111011110000000000000000 R
1S
1T
b0000001000 U
1W
#80000
0W
#85000
b0000000000000000000000000000000000000000000000000000000000000000000000000000000000000000000000000000000000000000000000000000000010111110111011110000000000000000000000000000000011011110101011010000000100000000000000001111111101100000000000000000000000001000 6
b10 I
1W
1Y
#90000
0W
#95000
b1100101011111110101110101011111000010010001101000101011001111000101010101010101010111011101110111100110011001100110111011101110100010001000100010010001000100010001100110011001101000100010001000101010101010101011001100110011001110111011101111000100010001000 6
1@
1E
b11 I
1W
1X
1Z
b00000000000000000000000000000001 [
#100000
0W
#105000
04
05
b0000000000000000000000000000000000000000000000000000000000000000000000000000000000000000000000000000000000000000000000000000000000000000000000000000000000000000000000000000000000000000000000000000000000000000000000000000000000000000000000000000000000000000 6
1?
0@
b0000000000000000110111101010110110111110111011110000000000100000 B
b00000000000000000000000000000000 D
0E
b101 F
b00000000000000000000000000000000 G
b00000000000000000000000000000000 H
b00 I
1W
0X
0Y
0Z
b00000000000000000000000000000010 [
#110000
0W
#115000
b00000000000000000000000000000011 $
02
03
0?
b000 F
1W
b00000000000000000000000000000000 [
#120000
0W
#125000
1W
#130000
0W
#135000
1&
b0000000000000000000000000000000010101010101010100000000000000000 '
b00000000000000000000000001000000 )
1>
b001 F
1W
#140000
0W
#145000
0&
b0001000100010001000100010001000100010001000100010001000100010001000100010001000100010001000100010001000100010001000100010001000100010001000100010001000100010001000100010001000100010001000100010001000100010001000100010001000100010001000100010001000100010001 *
12
0>
1A
b0000000000000000000000000000000010101010101010100000000000000000 B
b00000000000000000000000001000000 D
b010 F
b00000000000000000000000001000000 G
1W
#150000
0W
#155000
14
0A
b011 F
b00000000000000000000000001000000 H
b01 I
b0000000000000000000000000000000010101010101010100000000000000000 K
b00000000000000000000000001000000 M
b01000000000000000000000000010000 O
b10101010101010100000000000000000 Q
b00000000000000000000000000000000 R
0T
b0000010000 U
1W
#160000
0W
#165000
b0000000000000000000000000000000000000000000000000000000000000000000000000000000000000000000000000000000000000000000000000000000000000000000000000000000000000000101010101010101000000000000000000000000100000000000000001111111101000000000000000000000000010000 6
b10 I
1W
1Y
#170000
0W
#175000
b0001000100010001000100010001000100010001000100010001000100010001000100010001000100010001000100010001000100010001000100010001000100010001000100010001000100010001000100010001000100010001000100010001000100010001000100010001000100010001000100010001000100010001 6
1@
1E
b11 I
1W
b00000000000000000000000000000001 [
#180000
0W
#185000
15
b0000000000000000000000000000000010101010101010100000000000100000 B
b00000000000000000000000000100000 D
b00000000000000000000000000100000 G
b00000000000000000000000000100000 H
1W
1X
1Z
b00000000000000000000000000000010 [
#190000
0W
#195000
b0010001000100010001000100010001000100010001000100010001000100010001000100010001000100010001000100010001000100010001000100010001000100010001000100010001000100010001000100010001000100010001000100010001000100010001000100010001000100010001000100010001000100010 *
13
04
05
b0000000000000000000000000000000000000000000000000000000000000000000000000000000000000000000000000000000000000000000000000000000000000000000000000000000000000000000000000000000000000000000000000000000000000000000000000000000000000000000000000000000000000000 6
1?
0@
b0000000000000000000000000000000010101010101010100000000001000000 B
b00000000000000000000000000000000 D
0E
b101 F
b00000000000000000000000000000000 G
b00000000000000000000000000000000 H
b00 I
1W
0X
0Y
0Z
b00000000000000000000000000000011 [
#200000
0W
#205000
b00000000000000000000000000000110 $
02
03
0?
b000 F
1W
