pcie-sg-dma-engine/pcie-sg-dma-engine/sim_results/waveforms/tb_h2c_single.vcd
$version Generated by VerilatedVcd $end
$timescale 1ps $end
 $scope module TOP $end
  $scope module tb_h2c_single $end
   $var wire 32 a# AXIS_WIDTH [31:0] $end
   $var wire 32 b# MAX_READ_REQ_BYTES [31:0] $end
   $var wire 1 ^# clk $end
   $var wire 1 # rst_n $end
   $var wire 32 $ pass_count [31:0] $end
   $var wire 32 % fail_count [31:0] $end
   $var wire 1 & dispatch_valid $end
   $var wire 1 + dispatch_ack $end
   $var wire 1 , xfer_done $end
   $var wire 1 - xfer_error $end
   $var wire 64 ' src_addr [63:0] $end
   $var wire 32 ) xfer_len [31:0] $end
   $var wire 1 . tlp_req_valid $end
   $var wire 1 / tlp_req_ack $end
   $var wire 3 c# tlp_req_type [2:0] $end
   $var wire 64 0 tlp_req_addr [63:0] $end
   $var wire 32 2 tlp_req_len [31:0] $end
   $var wire 10 3 tlp_req_tag [9:0] $end
   $var wire 256 d# tlp_req_payload [255:0] $end
   $var wire 1 4 cpld_valid $end
   $var wire 10 5 cpld_tag [9:0] $end
   $var wire 256 6 cpld_data [255:0] $end
   $var wire 1 > cpld_last $end
   $var wire 1 ? cpld_malformed $end
   $var wire 256 @ m_axis_tdata [255:0] $end
   $var wire 1 H m_axis_tvalid $end
   $var wire 1 I m_axis_tlast $end
   $var wire 1 * m_axis_tready $end
   $var wire 3 J cpl_delay [2:0] $end
   $var wire 10 K cpl_tag_r [9:0] $end
   $var wire 32 L cpl_len_r [31:0] $end
   $var wire 64 M cpl_addr_r [63:0] $end
   $var wire 1 O respond_active $end
   $var wire 32 _# stream_beat_count [31:0] $end
   $scope module u_h2c $end
    $var wire 32 a# AXIS_WIDTH [31:0] $end
    $var wire 32 b# MAX_READ_REQ_BYTES [31:0] $end
    $var wire 1 ^# clk $end
    $var wire 1 # rst_n $end
    $var wire 1 & dispatch_valid $end
    $var wire 64 ' src_addr [63:0] $end
    $var wire 32 ) xfer_len [31:0] $end
    $var wire 1 + dispatch_ack $end
    $var wire 1 , xfer_done $end
    $var wire 1 - xfer_error $end
    $var wire 1 . tlp_req_valid $end
    $var wire 3 c# tlp_req_type [2:0] $end
    $var wire 64 0 tlp_req_addr [63:0] $end
    $var wire 32 2 tlp_req_len [31:0] $end
    $var wire 10 3 tlp_req_tag [9:0] $end
    $var wire 256 d# tlp_req_payload [255:0] $end
    $var wire 1 / tlp_req_ack $end
    $var wire 1 4 cpld_valid $end
    $var wire 10 5 cpld_tag [9:0] $end
    $var wire 256 6 cpld_data [255:0] $end
    $var wire 1 > cpld_last $end
    $var wire 1 ? cpld_malformed $end
    $var wire 256 @ m_axis_tdata [255:0] $end
    $var wire 1 H m_axis_tvalid $end
    $var wire 1 I m_axis_tlast $end
    $var wire 1 * m_axis_tready $end
    $var wire 3 P state [2:0] $end
    $var wire 32 Q bytes_remaining [31:0] $end
    $var wire 64 0 cur_src_addr [63:0] $end
    $var wire 10 3 cur_tag [9:0] $end
    $var wire 32 2 req_chunk_len [31:0] $end
    $var wire 32 l# FIFO_DEPTH [31:0] $end
    $var wire 257 R fifo_mem[0] [256:0] $end
    $var wire 257 [ fifo_mem[1] [256:0] $end
    $var wire 257 d fifo_mem[2] [256:0] $end
    $var wire 257 m fifo_mem[3] [256:0] $end
    $var wire 257 v fifo_mem[4] [256:0] $end
    $var wire 257 !! fifo_mem[5] [256:0] $end
    $var wire 257 *! fifo_mem[6] [256:0] $end
    $var wire 257 3! fifo_mem[7] [256:0] $end
    $var wire 257 <! fifo_mem[8] [256:0] $end
    $var wire 257 E! fifo_mem[9] [256:0] $end
    $var wire 257 N! fifo_mem[10] [256:0] $end
    $var wire 257 W! fifo_mem[11] [256:0] $end
    $var wire 257 `! fifo_mem[12] [256:0] $end
    $var wire 257 i! fifo_mem[13] [256:0] $end
    $var wire 257 r! fifo_mem[14] [256:0] $end
    $var wire 257 {! fifo_mem[15] [256:0] $end
    $var wire 257 &" fifo_mem[16] [256:0] $end
    $var wire 257 /" fifo_mem[17] [256:0] $end
    $var wire 257 8" fifo_mem[18] [256:0] $end
    $var wire 257 A" fifo_mem[19] [256:0] $end
    $var wire 257 J" fifo_mem[20] [256:0] $end
    $var wire 257 S" fifo_mem[21] [256:0] $end
    $var wire 257 \" fifo_mem[22] [256:0] $end
    $var wire 257 e" fifo_mem[23] [256:0] $end
    $var wire 257 n" fifo_mem[24] [256:0] $end
    $var wire 257 w" fifo_mem[25] [256:0] $end
    $var wire 257 "# fifo_mem[26] [256:0] $end
    $var wire 257 +# fifo_mem[27] [256:0] $end
    $var wire 257 4# fifo_mem[28] [256:0] $end
    $var wire 257 =# fifo_mem[29] [256:0] $end
    $var wire 257 F# fifo_mem[30] [256:0] $end
    $var wire 257 O# fifo_mem[31] [256:0] $end
    $var wire 5 X# fifo_wr_ptr [4:0] $end
    $var wire 5 Y# fifo_rd_ptr [4:0] $end
    $var wire 6 Z# fifo_count [5:0] $end
    $var wire 1 [# fifo_full $end
    $var wire 1 \# fifo_empty $end
    $var wire 1 ]# cpld_match $end
    $var wire 1 `# fifo_read_en $end
   $upscope $end
  $upscope $end
 $upscope $end
$enddefinitions $end


#0
0#
b00000000000000000000000000000000 $
b00000000000000000000000000000000 %
0&
b0000000000000000000000000000000000000000000000000000000000000000 '
b00000000000000000000000000000000 )
1*
0+
0,
0-
0.
0/
b0000000000000000000000000000000000000000000000000000000000000000 0
b00000000000000000000000000000000 2
b0000000000 3
04
b0000000000 5
b0000000000000000000000000000000000000000000000000000000000000000000000000000000000000000000000000000000000000000000000000000000000000000000000000000000000000000000000000000000000000000000000000000000000000000000000000000000000000000000000000000000000000000 6
0>
0?
b0000000000000000000000000000000000000000000000000000000000000000000000000000000000000000000000000000000000000000000000000000000000000000000000000000000000000000000000000000000000000000000000000000000000000000000000000000000000000000000000000000000000000000 @
0H
0I
b000 J
b0000000000 K
b00000000000000000000000000000000 L
b0000000000000000000000000000000000000000000000000000000000000000 M
0O
b000 P
b00000000000000000000000000000000 Q
b00000000000000000000000000000000000000000000000000000000000000000000000000000000000000000000000000000000000000000000000000000000000000000000000000000000000000000000000000000000000000000000000000000000000000000000000000000000000000000000000000000000000000000 R
b00000000000000000000000000000000000000000000000000000000000000000000000000000000000000000000000000000000000000000000000000000000000000000000000000000000000000000000000000000000000000000000000000000000000000000000000000000000000000000000000000000000000000000 [
b00000000000000000000000000000000000000000000000000000000000000000000000000000000000000000000000000000000000000000000000000000000000000000000000000000000000000000000000000000000000000000000000000000000000000000000000000000000000000000000000000000000000000000 d
b00000000000000000000000000000000000000000000000000000000000000000000000000000000000000000000000000000000000000000000000000000000000000000000000000000000000000000000000000000000000000000000000000000000000000000000000000000000000000000000000000000000000000000 m
b00000000000000000000000000000000000000000000000000000000000000000000000000000000000000000000000000000000000000000000000000000000000000000000000000000000000000000000000000000000000000000000000000000000000000000000000000000000000000000000000000000000000000000 v
b00000000000000000000000000000000000000000000000000000000000000000000000000000000000000000000000000000000000000000000000000000000000000000000000000000000000000000000000000000000000000000000000000000000000000000000000000000000000000000000000000000000000000000 !!
b00000000000000000000000000000000000000000000000000000000000000000000000000000000000000000000000000000000000000000000000000000000000000000000000000000000000000000000000000000000000000000000000000000000000000000000000000000000000000000000000000000000000000000 *!
b00000000000000000000000000000000000000000000000000000000000000000000000000000000000000000000000000000000000000000000000000000000000000000000000000000000000000000000000000000000000000000000000000000000000000000000000000000000000000000000000000000000000000000 3!
b00000000000000000000000000000000000000000000000000000000000000000000000000000000000000000000000000000000000000000000000000000000000000000000000000000000000000000000000000000000000000000000000000000000000000000000000000000000000000000000000000000000000000000 <!
b00000000000000000000000000000000000000000000000000000000000000000000000000000000000000000000000000000000000000000000000000000000000000000000000000000000000000000000000000000000000000000000000000000000000000000000000000000000000000000000000000000000000000000 E!
b00000000000000000000000000000000000000000000000000000000000000000000000000000000000000000000000000000000000000000000000000000000000000000000000000000000000000000000000000000000000000000000000000000000000000000000000000000000000000000000000000000000000000000 N!
b00000000000000000000000000000000000000000000000000000000000000000000000000000000000000000000000000000000000000000000000000000000000000000000000000000000000000000000000000000000000000000000000000000000000000000000000000000000000000000000000000000000000000000 W!
b00000000000000000000000000000000000000000000000000000000000000000000000000000000000000000000000000000000000000000000000000000000000000000000000000000000000000000000000000000000000000000000000000000000000000000000000000000000000000000000000000000000000000000 `!
b00000000000000000000000000000000000000000000000000000000000000000000000000000000000000000000000000000000000000000000000000000000000000000000000000000000000000000000000000000000000000000000000000000000000000000000000000000000000000000000000000000000000000000 i!
b00000000000000000000000000000000000000000000000000000000000000000000000000000000000000000000000000000000000000000000000000000000000000000000000000000000000000000000000000000000000000000000000000000000000000000000000000000000000000000000000000000000000000000 r!
b00000000000000000000000000000000000000000000000000000000000000000000000000000000000000000000000000000000000000000000000000000000000000000000000000000000000000000000000000000000000000000000000000000000000000000000000000000000000000000000000000000000000000000 {!
b00000000000000000000000000000000000000000000000000000000000000000000000000000000000000000000000000000000000000000000000000000000000000000000000000000000000000000000000000000000000000000000000000000000000000000000000000000000000000000000000000000000000000000 &"
b00000000000000000000000000000000000000000000000000000000000000000000000000000000000000000000000000000000000000000000000000000000000000000000000000000000000000000000000000000000000000000000000000000000000000000000000000000000000000000000000000000000000000000 /"
b00000000000000000000000000000000000000000000000000000000000000000000000000000000000000000000000000000000000000000000000000000000000000000000000000000000000000000000000000000000000000000000000000000000000000000000000000000000000000000000000000000000000000000 8"
b00000000000000000000000000000000000000000000000000000000000000000000000000000000000000000000000000000000000000000000000000000000000000000000000000000000000000000000000000000000000000000000000000000000000000000000000000000000000000000000000000000000000000000 A"
b00000000000000000000000000000000000000000000000000000000000000000000000000000000000000000000000000000000000000000000000000000000000000000000000000000000000000000000000000000000000000000000000000000000000000000000000000000000000000000000000000000000000000000 J"
b00000000000000000000000000000000000000000000000000000000000000000000000000000000000000000000000000000000000000000000000000000000000000000000000000000000000000000000000000000000000000000000000000000000000000000000000000000000000000000000000000000000000000000 S"
b00000000000000000000000000000000000000000000000000000000000000000000000000000000000000000000000000000000000000000000000000000000000000000000000000000000000000000000000000000000000000000000000000000000000000000000000000000000000000000000000000000000000000000 \"
b00000000000000000000000000000000000000000000000000000000000000000000000000000000000000000000000000000000000000000000000000000000000000000000000000000000000000000000000000000000000000000000000000000000000000000000000000000000000000000000000000000000000000000 e"
b00000000000000000000000000000000000000000000000000000000000000000000000000000000000000000000000000000000000000000000000000000000000000000000000000000000000000000000000000000000000000000000000000000000000000000000000000000000000000000000000000000000000000000 n"
b00000000000000000000000000000000000000000000000000000000000000000000000000000000000000000000000000000000000000000000000000000000000000000000000000000000000000000000000000000000000000000000000000000000000000000000000000000000000000000000000000000000000000000 w"
b00000000000000000000000000000000000000000000000000000000000000000000000000000000000000000000000000000000000000000000000000000000000000000000000000000000000000000000000000000000000000000000000000000000000000000000000000000000000000000000000000000000000000000 "#
b00000000000000000000000000000000000000000000000000000000000000000000000000000000000000000000000000000000000000000000000000000000000000000000000000000000000000000000000000000000000000000000000000000000000000000000000000000000000000000000000000000000000000000 +#
b00000000000000000000000000000000000000000000000000000000000000000000000000000000000000000000000000000000000000000000000000000000000000000000000000000000000000000000000000000000000000000000000000000000000000000000000000000000000000000000000000000000000000000 4#
b00000000000000000000000000000000000000000000000000000000000000000000000000000000000000000000000000000000000000000000000000000000000000000000000000000000000000000000000000000000000000000000000000000000000000000000000000000000000000000000000000000000000000000 =#
b00000000000000000000000000000000000000000000000000000000000000000000000000000000000000000000000000000000000000000000000000000000000000000000000000000000000000000000000000000000000000000000000000000000000000000000000000000000000000000000000000000000000000000 F#
b00000000000000000000000000000000000000000000000000000000000000000000000000000000000000000000000000000000000000000000000000000000000000000000000000000000000000000000000000000000000000000000000000000000000000000000000000000000000000000000000000000000000000000 O#
b00000 X#
b00000 Y#
b000000 Z#
0[#
1\#
0]#
0^#
b00000000000000000000000000000000 _#
0`#
b00000000000000000000000100000000 a#
b00000000000000000000000001000000 b#
b000 c#
b0000000000000000000000000000000000000000000000000000000000000000000000000000000000000000000000000000000000000000000000000000000000000000000000000000000000000000000000000000000000000000000000000000000000000000000000000000000000000000000000000000000000000000 d#
b00000000000000000000000000100000 l#
#5000
1^#
#10000
0^#
#15000
1^#
#20000
0^#
#25000
1^#
#30000
0^#
#35000
1^#
#40000
0^#
#45000
1#
1^#
#50000
0^#
#55000
1&
b0000000000000000000100000000000000100000000000000011000000000000 '
b00000000000000000000000001000000 )
1+
b001 P
1^#
#60000
0^#
#65000
0&
0+
1.
b0000000000000000000100000000000000100000000000000011000000000000 0
b00000000000000000000000001000000 2
b010 P
b00000000000000000000000001000000 Q
1^#
#70000
0^#
#75000
1/
1^#
#80000
0^#
#85000
0.
b011 J
b00000000000000000000000001000000 L
b0000000000000000000100000000000000100000000000000011000000000000 M
1O
b011 P
1^#
#90000
0^#
#95000
0/
b010 J
1^#
#100000
0^#
#105000
b001 J
1^#
#110000
0^#
#115000
b000 J
1^#
#120000
0^#
#125000
14
b0010000000000000001100000000000001010101101010100101010110101010001000000000000000110000000000000101010110101010010101011010101000100000000000000011000000000000010101011010101001010101101010100010000000000000001100000000000001010101101010100101010110101010 6
1>
0O
1]#
1^#
#130000
0^#
#135000
b0000000000000000000100000000000000100000000000000011000001000000 0
b00000000000000000000000000000000 2
04
0>
b0010000000000000001100000000000001010101101010100101010110101010001000000000000000110000000000000101010110101010010101011010101000100000000000000011000000000000010101011010101001010101101010100010000000000000001100000000000001010101101010100101010110101010 @
1H
1I
b101 P
b00000000000000000000000000000000 Q
b10010000000000000001100000000000001010101101010100101010110101010001000000000000000110000000000000101010110101010010101011010101000100000000000000011000000000000010101011010101001010101101010100010000000000000001100000000000001010101101010100101010110101010 R
b00001 X#
b000001 Z#
0\#
0]#
1^#
1`#
#140000
0^#
#145000
b0000000000000000000000000000000000000000000000000000000000000000000000000000000000000000000000000000000000000000000000000000000000000000000000000000000000000000000000000000000000000000000000000000000000000000000000000000000000000000000000000000000000000000 @
0H
0I
b00001 Y#
b000000 Z#
1\#
1^#
b00000000000000000000000000000001 _#
0`#
#150000
0^#
#155000
1,
b110 P
1^#
#160000
0^#
#165000
0,
b000 P
1^#
#170000
0^#
#175000
b00000000000000000000000000000011 $
1^#
b00000000000000000000000000000000 _#
#180000
0^#
#185000
1^#
#190000
0^#
#195000
1&
b0000000000000000010100000000000001100000000000000111000000000000 '
b00000000000000000000000010000000 )
1+
b001 P
1^#
#200000
0^#
#205000
0&
0+
1.
b0000000000000000010100000000000001100000000000000111000000000000 0
b00000000000000000000000001000000 2
b010 P
b00000000000000000000000010000000 Q
1^#
#210000
0^#
#215000
1/
1^#
#220000
0^#
#225000
0.
b011 J
b0000000000000000010100000000000001100000000000000111000000000000 M
1O
b011 P
1^#
#230000
0^#
#235000
0/
b010 J
1^#
#240000
0^#
#245000
b001 J
1^#
#250000
0^#
#255000
b000 J
1^#
#260000
0^#
#265000
14
b0110000000000000011100000000000001010101101010100101010110101010011000000000000001110000000000000101010110101010010101011010101001100000000000000111000000000000010101011010101001010101101010100110000000000000011100000000000001010101101010100101010110101010 6
1>
0O
1]#
1^#
#270000
0^#
#275000
b0000000000000000010100000000000001100000000000000111000001000000 0
04
0>
b0110000000000000011100000000000001010101101010100101010110101010011000000000000001110000000000000101010110101010010101011010101001100000000000000111000000000000010101011010101001010101101010100110000000000000011100000000000001010101101010100101010110101010 @
1H
b100 P
b00000000000000000000000001000000 Q
b00110000000000000011100000000000001010101101010100101010110101010011000000000000001110000000000000101010110101010010101011010101001100000000000000111000000000000010101011010101001010101101010100110000000000000011100000000000001010101101010100101010110101010 [
b00010 X#
b000001 Z#
0\#
0]#
1^#
1`#
#280000
0^#
#285000
1.
b0000000001 3
b0000000000000000000000000000000000000000000000000000000000000000000000000000000000000000000000000000000000000000000000000000000000000000000000000000000000000000000000000000000000000000000000000000000000000000000000000000000000000000000000000000000000000000 @
0H
b010 P
b00010 Y#
b000000 Z#
1\#
1^#
b00000000000000000000000000000001 _#
0`#
#290000
0^#
#295000
1/
1^#
#300000
0^#
#305000
0.
b011 J
b0000000001 K
b0000000000000000010100000000000001100000000000000111000001000000 M
1O
b011 P
1^#
#310000
0^#
#315000
0/
b010 J
1^#
#320000
0^#
#325000
b001 J
1^#
#330000
0^#
#335000
b000 J
1^#
#340000
0^#
#345000
14
b0000000001 5
b0110000000000000011100000100000001010101101010100101010110101010011000000000000001110000010000000101010110101010010101011010101001100000000000000111000001000000010101011010101001010101101010100110000000000000011100000100000001010101101010100101010110101010 6
1>
0O
1]#
1^#
#350000
0^#
#355000
b0000000000000000010100000000000001100000000000000111000010000000 0
b00000000000000000000000000000000 2
04
0>
b0110000000000000011100000100000001010101101010100101010110101010011000000000000001110000010000000101010110101010010101011010101001100000000000000111000001000000010101011010101001010101101010100110000000000000011100000100000001010101101010100101010110101010 @
1H
1I
b101 P
b00000000000000000000000000000000 Q
b10110000000000000011100000100000001010101101010100101010110101010011000000000000001110000010000000101010110101010010101011010101001100000000000000111000001000000010101011010101001010101101010100110000000000000011100000100000001010101101010100101010110101010 d
b00011 X#
b000001 Z#
0\#
0]#
1^#
1`#
#360000
0^#
#365000
b0000000000000000000000000000000000000000000000000000000000000000000000000000000000000000000000000000000000000000000000000000000000000000000000000000000000000000000000000000000000000000000000000000000000000000000000000000000000000000000000000000000000000000 @
0H
0I
b00011 Y#
b000000 Z#
1\#
1^#
b00000000000000000000000000000010 _#
0`#
#370000
0^#
#375000
1,
b110 P
1^#
#380000
0^#
#385000
0,
b000 P
1^#
#390000
0^#
#395000
b00000000000000000000000000000110 $
1^#
