pcie-sg-dma-engine/pcie-sg-dma-engine/sim_results/waveforms/tb_msix_coalescing.vcd
$version Generated by VerilatedVcd $end
$timescale 1ps $end
 $scope module TOP $end
  $scope module tb_msix_coalescing $end
   $var wire 1 V clk $end
   $var wire 1 # rst_n $end
   $var wire 32 $ pass_count [31:0] $end
   $var wire 32 % fail_count [31:0] $end
   $var wire 1 & wb_event_pulse $end
   $var wire 16 ' pending_completions [15:0] $end
   $var wire 32 ( wb_intr_timeout_cfg [31:0] $end
   $var wire 1 W msix_fire $end
   $var wire 8 Y msix_vector_sel [7:0] $end
   $var wire 1 + msix_wr_req $end
   $var wire 64 , msix_wr_addr [63:0] $end
   $var wire 32 . msix_wr_data [31:0] $end
   $var wire 1 / msix_wr_ack $end
   $var wire 32 X fire_count [31:0] $end
   $scope module u_ctrl $end
    $var wire 32 Z TIMEOUT_WIDTH [31:0] $end
    $var wire 32 [ NEAR_FULL_THRESHOLD [31:0] $end
    $var wire 1 V clk $end
    $var wire 1 # rst_n $end
    $var wire 1 & wb_event_pulse $end
    $var wire 16 ' pending_completions [15:0] $end
    $var wire 32 ( wb_intr_timeout_cfg [31:0] $end
    $var wire 1 W msix_fire $end
    $var wire 8 Y msix_vector_sel [7:0] $end
    $var wire 32 0 timer_r [31:0] $end
    $var wire 1 1 timer_armed $end
    $var wire 1 ) near_full $end
   $upscope $end
   $scope module u_table $end
    $var wire 32 \ NUM_VECTORS [31:0] $end
    $var wire 1 V clk $end
    $var wire 1 # rst_n $end
    $var wire 1 ] reg_wr_en $end
    $var wire 32 ^ reg_wr_addr [31:0] $end
    $var wire 32 ^ reg_wr_data [31:0] $end
    $var wire 1 ] reg_rd_en $end
    $var wire 32 ^ reg_rd_addr [31:0] $end
    $var wire 32 2 reg_rd_data [31:0] $end
    $var wire 1 W msix_fire $end
    $var wire 8 Y msix_vector_sel [7:0] $end
    $var wire 1 + msix_wr_req $end
    $var wire 64 , msix_wr_addr [63:0] $end
    $var wire 32 . msix_wr_data [31:0] $end
    $var wire 1 / msix_wr_ack $end
    $var wire 128 3 table_mem[0] [127:0] $end
    $var wire 128 7 table_mem[1] [127:0] $end
    $var wire 128 ; table_mem[2] [127:0] $end
    $var wire 128 ? table_mem[3] [127:0] $end
    $var wire 128 C table_mem[4] [127:0] $end
    $var wire 128 G table_mem[5] [127:0] $end
    $var wire 128 K table_mem[6] [127:0] $end
    $var wire 128 O table_mem[7] [127:0] $end
    $var wire 8 S pba [7:0] $end
    $var wire 2 T state [1:0] $end
    $scope module unnamedblk1 $end
     $var wire 32 U i [31:0] $end
    $upscope $end
   $upscope $end
   $scope module unnamedblk1 $end
    $var wire 32 * i [31:0] $end
   $upscope $end
  $upscope $end
 $upscope $end
$enddefinitions $end


#0
0#
b00000000000000000000000000000000 $
b00000000000000000000000000000000 %
0&
b0000000000000000 '
b00000000000000000000000000010100 (
0)
b00000000000000000000000000000000 *
0+
b0000000000000000000000000000000000000000000000000000000000000000 ,
b00000000000000000000000000000000 .
0/
b00000000000000000000000000000000 0
01
b00000000000000000000000000000000 2
b00000000000000000000000000000000000000000000000000000000000000000000000000000000000000000000000000000000000000000000000000000000 3
b00000000000000000000000000000000000000000000000000000000000000000000000000000000000000000000000000000000000000000000000000000000 7
b00000000000000000000000000000000000000000000000000000000000000000000000000000000000000000000000000000000000000000000000000000000 ;
b00000000000000000000000000000000000000000000000000000000000000000000000000000000000000000000000000000000000000000000000000000000 ?
b00000000000000000000000000000000000000000000000000000000000000000000000000000000000000000000000000000000000000000000000000000000 C
b00000000000000000000000000000000000000000000000000000000000000000000000000000000000000000000000000000000000000000000000000000000 G
b00000000000000000000000000000000000000000000000000000000000000000000000000000000000000000000000000000000000000000000000000000000 K
b00000000000000000000000000000000000000000000000000000000000000000000000000000000000000000000000000000000000000000000000000000000 O
b00000000 S
b00 T
b00000000000000000000000000000000 U
0V
0W
b00000000000000000000000000000000 X
b00000000 Y
b00000000000000000000000000100000 Z
b00000000000000000000000000001100 [
b00000000000000000000000000001000 \
0]
b00000000000000000000000000000000 ^
#5000
b00000000000000000000000000001000 U
1V
#10000
0V
#15000
1V
#20000
0V
#25000
1V
#30000
0V
#35000
1V
#40000
0V
#45000
1#
1V
#50000
0V
#55000
1&
b0000000000000001 '
11
1V
#60000
0V
#65000
0&
b00000000000000000000000000000001 0
1V
#70000
0V
#75000
b00000000000000000000000000000010 0
1V
#80000
0V
#85000
b00000000000000000000000000000011 0
1V
#90000
0V
#95000
b00000000000000000000000000000100 0
1V
#100000
0V
#105000
b00000000000000000000000000000101 0
1V
#110000
0V
#115000
b00000000000000000000000000000110 0
1V
#120000
0V
#125000
b00000000000000000000000000000111 0
1V
#130000
0V
#135000
b00000000000000000000000000001000 0
1V
#140000
0V
#145000
b00000000000000000000000000001001 0
1V
#150000
0V
#155000
b00000000000000000000000000001010 0
1V
#160000
0V
#165000
b00000000000000000000000000001011 0
1V
#170000
0V
#175000
b00000000000000000000000000001100 0
1V
#180000
0V
#185000
b00000000000000000000000000001101 0
1V
#190000
0V
#195000
b00000000000000000000000000001110 0
1V
#200000
0V
#205000
b00000000000000000000000000001111 0
1V
#210000
0V
#215000
b00000000000000000000000000010000 0
1V
#220000
0V
#225000
b00000000000000000000000000010001 0
1V
#230000
0V
#235000
b00000000000000000000000000010010 0
1V
#240000
0V
#245000
b00000000000000000000000000010011 0
1V
#250000
0V
#255000
b00000000000000000000000000010100 0
1V
1W
#260000
0V
#265000
1+
b00000000000000000000000000000000 0
01
b01 T
1V
0W
b00000000000000000000000000000001 X
#270000
0V
#275000
0+
1/
b10 T
1V
#280000
0V
#285000
0/
b00 T
1V
#290000
0V
#295000
1V
#300000
0V
#305000
1V
#310000
0V
#315000
1V
#320000
0V
#325000
1V
#330000
0V
#335000
1V
#340000
0V
#345000
1V
#350000
0V
#355000
1V
#360000
0V
#365000
b00000000000000000000000000000001 $
b0000000000000000 '
1V
b00000000000000000000000000000000 X
