pcie-sg-dma-engine/pcie-sg-dma-engine/sim_results/waveforms/tb_malformed_descriptor.vcd
$version Generated by VerilatedVcd $end
$timescale 1ps $end
 $scope module TOP $end
  $scope module tb_malformed_descriptor $end
   $var wire 32 O RING_DEPTH [31:0] $end
   $var wire 32 P PTR_WIDTH [31:0] $end
   $var wire 1 M clk $end
   $var wire 1 # rst_n $end
   $var wire 1 $ extract_valid $end
   $var wire 8 % extract_ptr [7:0] $end
   $var wire 1 7 extract_ptr_update $end
   $var wire 1 8 extract_valid_req $end
   $var wire 1 9 desc_rd_req $end
   $var wire 64 & desc_rd_addr [63:0] $end
   $var wire 1 ( desc_rd_valid $end
   $var wire 256 ) desc_rd_data [255:0] $end
   $var wire 64 : desc_src_addr [63:0] $end
   $var wire 64 < desc_dst_addr [63:0] $end
   $var wire 32 > desc_len [31:0] $end
   $var wire 1 ? desc_dir $end
   $var wire 1 @ desc_irq_en $end
   $var wire 1 A decode_error $end
   $var wire 1 B dispatch_valid $end
   $var wire 1 1 dispatch_ack $end
   $var wire 1 2 xfer_done $end
   $var wire 1 3 xfer_error $end
   $var wire 1 C writeback_req $end
   $var wire 1 4 writeback_done $end
   $var wire 4 D state_dbg [3:0] $end
   $var wire 32 5 pass_count [31:0] $end
   $var wire 32 6 fail_count [31:0] $end
   $scope module dut $end
    $var wire 32 O RING_DEPTH [31:0] $end
    $var wire 32 P PTR_WIDTH [31:0] $end
    $var wire 32 Q MAX_XFER_LEN [31:0] $end
    $var wire 1 M clk $end
    $var wire 1 # rst_n $end
    $var wire 64 R desc_base_addr [63:0] $end
    $var wire 1 $ extract_valid $end
    $var wire 8 % extract_ptr [7:0] $end
    $var wire 1 7 extract_ptr_update $end
    $var wire 1 8 extract_valid_req $end
    $var wire 1 9 desc_rd_req $end
    $var wire 64 & desc_rd_addr [63:0] $end
    $var wire 1 ( desc_rd_valid $end
    $var wire 256 ) desc_rd_data [255:0] $end
    $var wire 64 : desc_src_addr [63:0] $end
    $var wire 64 < desc_dst_addr [63:0] $end
    $var wire 32 > desc_len [31:0] $end
    $var wire 1 ? desc_dir $end
    $var wire 1 @ desc_irq_en $end
    $var wire 1 A decode_error $end
    $var wire 1 B dispatch_valid $end
    $var wire 1 1 dispatch_ack $end
    $var wire 1 2 xfer_done $end
    $var wire 1 3 xfer_error $end
    $var wire 1 C writeback_req $end
    $var wire 1 4 writeback_done $end
    $var wire 4 D state_dbg [3:0] $end
    $var wire 4 D state [3:0] $end
    $var wire 4 N state_n [3:0] $end
    $var wire 256 E desc_raw [255:0] $end
   $upscope $end
  $upscope $end
 $upscope $end
$enddefinitions $end


#0
0#
0$
b00000000 %
b0000000000000000000000000000000000000000000000000000000000000000 &
0(
b0000000000000000000000000000000000000000000000000000000000000000000000000000000000000000000000000000000000000000000000000000000000000000000000000000000000000000000000000000000000000000000000000000000000000000000000000000000000000000000000000000000000000000 )
01
02
03
04
b00000000000000000000000000000000 5
b00000000000000000000000000000000 6
07
18
09
b0000000000000000000000000000000000000000000000000000000000000000 :
b0000000000000000000000000000000000000000000000000000000000000000 <
b00000000000000000000000000000000 >
0?
0@
0A
0B
0C
b0000 D
b0000000000000000000000000000000000000000000000000000000000000000000000000000000000000000000000000000000000000000000000000000000000000000000000000000000000000000000000000000000000000000000000000000000000000000000000000000000000000000000000000000000000000000 E
0M
b0000 N
b00000000000000000000000010000000 O
b00000000000000000000000000001000 P
b00000100000000000000000000000000 Q
b0000000000000000000000000000000000000000000000000000000000000000 R
#5000
1M
#10000
0M
#15000
1M
#20000
0M
#25000
1M
#30000
0M
#35000
1M
#40000
0M
#45000
1#
1M
#50000
0M
#55000
1$
08
19
b0001 D
1M
b0010 N
#60000
0M
#65000
09
b0010 D
1M
#70000
0M
#75000
1(
b0000000000000000000000000000000000000000000000000000000000000000000000000000000000000000000001010000000000000000000000000000000000000000000000000000000000000000001000000000000000000000000000000000000000000000000000000000000000010000000000000000000000000000 )
b0011 D
b0000000000000000000000000000000000000000000000000000000000000000000000000000000000000000000001010000000000000000000000000000000000000000000000000000000000000000001000000000000000000000000000000000000000000000000000000000000000010000000000000000000000000000 E
1M
b0100 N
#80000
0M
#85000
0(
b0000000000000000000000000000000000010000000000000000000000000000 :
b0000000000000000000000000000000000100000000000000000000000000000 <
1?
1@
1A
b0100 D
1M
b0110 N
#90000
0M
#95000
1C
b0110 D
1M
b0111 N
#100000
0M
#105000
b00000000000000000000000000000010 5
0C
b0111 D
1M
#110000
0M
#115000
14
17
18
b1000 D
1M
b0000 N
#120000
0M
#125000
04
07
b0000 D
1M
b0001 N
#130000
0M
#135000
08
19
0A
b0001 D
1M
b0010 N
#140000
0M
#145000
09
b0010 D
1M
#150000
0M
#155000
1(
b0000000000000000000000000000000000000000000000000000000000000000000000000000000000000000000001010000010100000000000000000000000000000000000000000000000000000000001000000000000000000000000000000000000000000000000000000000000000010000000000000000000000000000 )
b0011 D
b0000000000000000000000000000000000000000000000000000000000000000000000000000000000000000000001010000010100000000000000000000000000000000000000000000000000000000001000000000000000000000000000000000000000000000000000000000000000010000000000000000000000000000 E
1M
b0100 N
#160000
0M
#165000
0(
b00000101000000000000000000000000 >
1A
b0100 D
1M
b0110 N
#170000
0M
#175000
1C
b0110 D
1M
b0111 N
#180000
0M
#185000
b00000000000000000000000000000100 5
0C
b0111 D
1M
#190000
0M
#195000
14
17
18
b1000 D
1M
b0000 N
#200000
0M
#205000
04
07
b0000 D
1M
b0001 N
#210000
0M
#215000
08
19
0A
b0001 D
1M
b0010 N
#220000
0M
#225000
09
b0010 D
1M
#230000
0M
#235000
1(
b0000000000000000000000000000000000000000000000000000000000000000000000000000000000000000000001000000000000000000000100000000000000000000000000000000000000000000001000000000000000000000000000000000000000000000000000000000000000010000000000000000000000000001 )
b0011 D
b0000000000000000000000000000000000000000000000000000000000000000000000000000000000000000000001000000000000000000000100000000000000000000000000000000000000000000001000000000000000000000000000000000000000000000000000000000000000010000000000000000000000000001 E
1M
b0100 N
#240000
0M
#245000
0(
b0000000000000000000000000000000000010000000000000000000000000001 :
b00000000000000000001000000000000 >
0?
1A
b0100 D
1M
b0110 N
#250000
0M
#255000
1C
b0110 D
1M
b0111 N
#260000
0M
#265000
b00000000000000000000000000000110 5
0C
b0111 D
1M
#270000
0M
#275000
14
17
18
b1000 D
1M
b0000 N
#280000
0M
#285000
04
07
b0000 D
1M
b0001 N
#290000
0M
#295000
08
19
0A
b0001 D
1M
b0010 N
#300000
0M
#305000
09
b0010 D
1M
#310000
0M
#315000
1(
b0000000000000000000000000000000000000000000000000000000000000000000000000000000000000000000001010000000000000000000100000000000000000000000000000000000000000000001000000000000000000000000000010000000000000000000000000000000000010000000000000000000000000000 )
b0011 D
b0000000000000000000000000000000000000000000000000000000000000000000000000000000000000000000001010000000000000000000100000000000000000000000000000000000000000000001000000000000000000000000000010000000000000000000000000000000000010000000000000000000000000000 E
1M
b0100 N
#320000
0M
#325000
0(
b0000000000000000000000000000000000010000000000000000000000000000 :
b0000000000000000000000000000000000100000000000000000000000000001 <
1?
1A
b0100 D
1M
b0110 N
#330000
0M
#335000
1C
b0110 D
1M
b0111 N
#340000
0M
#345000
b00000000000000000000000000001000 5
0C
b0111 D
1M
#350000
0M
#355000
14
17
18
b1000 D
1M
b0000 N
#360000
0M
#365000
04
07
b0000 D
1M
b0001 N
#370000
0M
#375000
08
19
0A
b0001 D
1M
b0010 N
#380000
0M
#385000
09
b0010 D
1M
#390000
0M
#395000
1(
b0000000000000000000000000000000000000000000000000000000000000000000000000000000000000000000001010000000000000000000100000000000000000000000000000000000000000000001000000000000000000000000000000000000000000000000000000000000000010000000000000000000000000000 )
b0011 D
b0000000000000000000000000000000000000000000000000000000000000000000000000000000000000000000001010000000000000000000100000000000000000000000000000000000000000000001000000000000000000000000000000000000000000000000000000000000000010000000000000000000000000000 E
1M
b0100 N
#400000
0M
#405000
0(
b0000000000000000000000000000000000100000000000000000000000000000 <
1B
b0100 D
1M
#410000
0M
#415000
1M
#420000
0M
#425000
11
b00000000000000000000000000001010 5
0B
b0101 D
1M
b0101 N
#430000
0M
#435000
01
12
1C
b0110 D
1M
b0111 N
#440000
0M
#445000
02
0C
b0111 D
1M
#450000
0M
#455000
14
17
18
b1000 D
1M
b0000 N
#460000
0M
#465000
04
07
b0000 D
1M
b0001 N
#470000
0M
#475000
08
19
b0001 D
1M
b0010 N
#480000
0M
#485000
09
b0010 D
1M
#490000
0M
#495000
1(
b0000000000000000000000000000000000000000000000000000000000000000000000000000000000000000000000000000010000000000000000000000000000000000000000000000000000000000001000000000000000000000000000000000000000000000000000000000000000010000000000000000000000000000 )
b0011 D
b0000000000000000000000000000000000000000000000000000000000000000000000000000000000000000000000000000010000000000000000000000000000000000000000000000000000000000001000000000000000000000000000000000000000000000000000000000000000010000000000000000000000000000 E
1M
b0100 N
#500000
0M
#505000
0(
b00000100000000000000000000000000 >
0?
0@
1B
b0100 D
1M
#510000
0M
#515000
1M
#520000
0M
#525000
11
b00000000000000000000000000001100 5
0B
b0101 D
1M
b0101 N
#530000
0M
#535000
01
12
1C
b0110 D
1M
b0111 N
#540000
0M
#545000
02
0C
b0111 D
1M
#550000
0M
#555000
14
17
18
b1000 D
1M
b0000 N
#560000
0M
#565000
04
07
b0000 D
1M
b0001 N
#570000
0M
#575000
08
19
b0001 D
1M
b0010 N
#580000
0M
#585000
0$
09
b0010 D
1M
